// This file is released under the 3-clause BSD license. See COPYING-BSD.
//=================================
// Test flags
//<-- XCOS TEST -->
//<-- NO CHECK ERROR OUTPUT -->
//Load xcos test diagram for station_visibility tests
[macros,path] = libraryinfo('xcos_aerolib');
result = importXcosDiagram(path + "../tests/unit_tests" +"/station_visibility.xcos");
assert_checktrue(result);
//This diagram uses some variables 
lat_in = 1.3962634;
long_in = 2.8797933;
alt_in = 15;
mask_in = 0.0872665;
moments_in = [0,1,2,3,4,5,6,7,8,9];
time_in = [21915.15, 21915.151, 21915.152, 21915.153, 21915.154,..
           21915.155, 21915.156, 21915.157, 21915.158, 21915.159];
x_in = [-3499786.2,-3003392.5,-2477973.2,-1927978.1,-1358096.2,-773215.07,..
        -178377.8,421261.21,1020481.8,1614044.4];
y_in = [-783324.51,-471445.81,-162044.42,141954.57,437729.97,722590.9,..
         994001.41,1249603.3,1487236.8,1704959.1];
z_in = [6088855.6,6379799.2,6617129.2,6798865.2,6923495.5,6989989,..
        6997803.4,6946889.1,6837689.5,6671136.3];
scicos_simulate(scs_m);
// Define expected values
exp_time = time_in';
exp_visibility = [0;1;1;1;1;1;1;1;1;0];
//Validate results
assert_checkequal(exp_time, time_out.values);
assert_checkequal(exp_visibility, visibility_out.values);
