<?xml version="1.0" encoding="UTF-8" standalone="no"?>
<svg
   xmlns:dc="http://purl.org/dc/elements/1.1/"
   xmlns:cc="http://creativecommons.org/ns#"
   xmlns:rdf="http://www.w3.org/1999/02/22-rdf-syntax-ns#"
   xmlns:svg="http://www.w3.org/2000/svg"
   xmlns="http://www.w3.org/2000/svg"
   xmlns:xlink="http://www.w3.org/1999/xlink"
   xmlns:sodipodi="http://sodipodi.sourceforge.net/DTD/sodipodi-0.dtd"
   xmlns:inkscape="http://www.inkscape.org/namespaces/inkscape"
   width="40px"
   height="40px"
   viewBox="0 0 40 40"
   style="stroke:none"
   id="svg2"
   version="1.1"
   inkscape:version="0.48.1 r9760"
   sodipodi:docname="ANGLE_CONVERSION.svg">
  <metadata
     id="metadata72">
    <rdf:RDF>
      <cc:Work
         rdf:about="">
        <dc:format>image/svg+xml</dc:format>
        <dc:type
           rdf:resource="http://purl.org/dc/dcmitype/StillImage" />
        <dc:title>Graphic window number 0</dc:title>
      </cc:Work>
    </rdf:RDF>
  </metadata>
  <sodipodi:namedview
     pagecolor="#ffffff"
     bordercolor="#666666"
     borderopacity="1"
     objecttolerance="10"
     gridtolerance="10"
     guidetolerance="10"
     inkscape:pageopacity="0"
     inkscape:pageshadow="2"
     inkscape:window-width="1400"
     inkscape:window-height="992"
     id="namedview70"
     showgrid="false"
     inkscape:object-paths="true"
     inkscape:zoom="17.927729"
     inkscape:cx="20.761241"
     inkscape:cy="21.13889"
     inkscape:window-x="0"
     inkscape:window-y="26"
     inkscape:window-maximized="1"
     inkscape:current-layer="g3124" />
  <title
     id="title4">Graphic window number 0</title>
  <desc
     id="desc6">
Creator: GL2PS 1.3.2, (C) 1999-2006 Christophe Geuzaine (geuz@geuz.org)
For: Scilab
CreationDate: Fri Jun  1 17:52:22 2012
</desc>
  <defs
     id="defs8">
    <inkscape:perspective
       sodipodi:type="inkscape:persp3d"
       inkscape:vp_x="-11.311475 : 25.901639 : 1"
       inkscape:vp_y="0 : 1000 : 0"
       inkscape:vp_z="40 : 20 : 1"
       inkscape:persp3d-origin="20 : 13.333333 : 1"
       id="perspective3867" />
    <linearGradient
       id="linearGradient3952">
      <stop
         style="stop-color:#00a400;stop-opacity:1;"
         offset="0"
         id="stop3954" />
      <stop
         style="stop-color:#00ff97;stop-opacity:1;"
         offset="1"
         id="stop3956" />
    </linearGradient>
    <radialGradient
       inkscape:collect="always"
       xlink:href="#linearGradient6339"
       id="radialGradient24412"
       gradientUnits="userSpaceOnUse"
       gradientTransform="matrix(1.454579,-0.103027,0.118439,1.802414,-328.325,-918.4274)"
       cx="406.20645"
       cy="1189.2123"
       fx="406.20645"
       fy="1189.2123"
       r="88.938736" />
    <linearGradient
       id="linearGradient6339">
      <stop
         style="stop-color:#6e9f4b;stop-opacity:1;"
         offset="0"
         id="stop6341" />
      <stop
         id="stop12671"
         offset="0.5"
         style="stop-color:#425f2d;stop-opacity:1;" />
      <stop
         id="stop6347"
         offset="1"
         style="stop-color:#2a3d1d;stop-opacity:1;" />
    </linearGradient>
    <radialGradient
       inkscape:collect="always"
       xlink:href="#linearGradient13206"
       id="radialGradient24414"
       gradientUnits="userSpaceOnUse"
       gradientTransform="matrix(1.150346,0,0,1.150346,-16.1173,-74.46758)"
       cx="107.20115"
       cy="495.30679"
       fx="107.20115"
       fy="495.30679"
       r="405.35715" />
    <linearGradient
       id="linearGradient13206">
      <stop
         id="stop13208"
         offset="0"
         style="stop-color:#f2c41f;stop-opacity:1;" />
      <stop
         id="stop2186"
         offset="1"
         style="stop-color:#b9380a;stop-opacity:1;" />
    </linearGradient>
    <radialGradient
       inkscape:collect="always"
       xlink:href="#linearGradient5142"
       id="radialGradient24416"
       gradientUnits="userSpaceOnUse"
       gradientTransform="matrix(2.971416,0.433793,-0.445445,3.041429,176.2001,-314.492)"
       cx="209.15753"
       cy="407.22339"
       fx="209.15753"
       fy="407.22339"
       r="55.703125" />
    <linearGradient
       id="linearGradient5142">
      <stop
         style="stop-color:#bfd1eb;stop-opacity:1;"
         offset="0"
         id="stop5144" />
      <stop
         id="stop5150"
         offset="0.61538464"
         style="stop-color:#315c9b;stop-opacity:1;" />
      <stop
         style="stop-color:#11233a;stop-opacity:1;"
         offset="1"
         id="stop5146" />
    </linearGradient>
    <radialGradient
       inkscape:collect="always"
       xlink:href="#linearGradient4437"
       id="radialGradient24418"
       gradientUnits="userSpaceOnUse"
       cx="136.1499"
       cy="504.90085"
       fx="136.1499"
       fy="504.90085"
       r="406.37308" />
    <linearGradient
       inkscape:collect="always"
       id="linearGradient4437">
      <stop
         style="stop-color:#ffffff;stop-opacity:0.85624999"
         offset="0"
         id="stop4439" />
      <stop
         style="stop-color:#ffffff;stop-opacity:0;"
         offset="1"
         id="stop4441" />
    </linearGradient>
    <linearGradient
       x1="48.90625"
       y1="17.376184"
       x2="50.988335"
       y2="22.250591"
       id="linearGradient2554"
       xlink:href="#linearGradient2966"
       gradientUnits="userSpaceOnUse"
       gradientTransform="translate(-5.669292,0)" />
    <linearGradient
       id="linearGradient2966">
      <stop
         id="stop2968"
         style="stop-color:#ffd1d1;stop-opacity:1"
         offset="0" />
      <stop
         id="stop3006"
         style="stop-color:#ff1d1d;stop-opacity:1"
         offset="0.5" />
      <stop
         id="stop2970"
         style="stop-color:#6f0000;stop-opacity:1"
         offset="1" />
    </linearGradient>
    <linearGradient
       x1="46"
       y1="19.8125"
       x2="47.6875"
       y2="22.625"
       id="linearGradient2556"
       xlink:href="#linearGradient2974"
       gradientUnits="userSpaceOnUse"
       gradientTransform="translate(-5.669292,0)" />
    <linearGradient
       id="linearGradient2974">
      <stop
         id="stop2976"
         style="stop-color:#c1c1c1;stop-opacity:1"
         offset="0" />
      <stop
         id="stop2978"
         style="stop-color:#acacac;stop-opacity:1"
         offset="1" />
    </linearGradient>
    <radialGradient
       cx="29.053354"
       cy="27.640751"
       r="3.2408545"
       fx="29.053354"
       fy="27.640751"
       id="radialGradient2558"
       xlink:href="#linearGradient2984"
       gradientUnits="userSpaceOnUse"
       gradientTransform="matrix(2.923565,0,0,2.029717,-61.55532,-27.88417)" />
    <linearGradient
       id="linearGradient2984">
      <stop
         id="stop2986"
         style="stop-color:#e7e2b8;stop-opacity:1"
         offset="0" />
      <stop
         id="stop2988"
         style="stop-color:#e7e2b8;stop-opacity:0"
         offset="1" />
    </linearGradient>
    <linearGradient
       x1="25.71875"
       y1="31.046875"
       x2="25.514589"
       y2="30.703125"
       id="linearGradient2560"
       xlink:href="#linearGradient2994"
       gradientUnits="userSpaceOnUse"
       gradientTransform="translate(-5.825542,0.125)" />
    <linearGradient
       id="linearGradient2994">
      <stop
         id="stop2996"
         style="stop-color:#000000;stop-opacity:1"
         offset="0" />
      <stop
         id="stop2998"
         style="stop-color:#c9c9c9;stop-opacity:1"
         offset="1" />
    </linearGradient>
    <marker
       style="overflow:visible"
       id="TriangleOutS-0"
       refX="0"
       refY="0"
       orient="auto"
       inkscape:stockid="TriangleOutS">
      <path
         transform="scale(0.2,0.2)"
         style="fill-rule:evenodd;stroke:#000000;stroke-width:1pt;marker-start:none"
         d="m 5.77,0 -8.65,5 0,-10 8.65,5 z"
         id="path3754-9" />
    </marker>
    <inkscape:perspective
       sodipodi:type="inkscape:persp3d"
       inkscape:vp_x="0 : 0.5 : 1"
       inkscape:vp_y="0 : 1000 : 0"
       inkscape:vp_z="1 : 0.5 : 1"
       inkscape:persp3d-origin="0.5 : 0.33333333 : 1"
       id="perspective4628" />
    <inkscape:perspective
       id="perspective20"
       inkscape:persp3d-origin="376.56 : 223.84001 : 1"
       inkscape:vp_z="753.12 : 335.76001 : 1"
       inkscape:vp_y="0 : 1000 : 0"
       inkscape:vp_x="0 : 335.76001 : 1"
       sodipodi:type="inkscape:persp3d" />
    <marker
       style="overflow:visible;"
       id="Arrow2Lend"
       refX="0.0"
       refY="0.0"
       orient="auto"
       inkscape:stockid="Arrow2Lend">
      <path
         transform="scale(1.1) rotate(180) translate(1,0)"
         d="M 8.7185878,4.0337352 L -2.2072895,0.016013256 L 8.7185884,-4.0017078 C 6.9730900,-1.6296469 6.9831476,1.6157441 8.7185878,4.0337352 z "
         style="font-size:12.0;fill-rule:evenodd;stroke-width:0.62500000;stroke-linejoin:round;"
         id="path3626" />
    </marker>
    <marker
       style="overflow:visible"
       id="TriangleOutL"
       refX="0.0"
       refY="0.0"
       orient="auto"
       inkscape:stockid="TriangleOutL">
      <path
         transform="scale(0.8)"
         style="fill-rule:evenodd;stroke:#000000;stroke-width:1.0pt;marker-start:none"
         d="M 5.77,0.0 L -2.88,5.0 L -2.88,-5.0 L 5.77,0.0 z "
         id="path3748" />
    </marker>
    <marker
       style="overflow:visible"
       id="TriangleOutM"
       refX="0.0"
       refY="0.0"
       orient="auto"
       inkscape:stockid="TriangleOutM">
      <path
         transform="scale(0.4)"
         style="fill-rule:evenodd;stroke:#000000;stroke-width:1.0pt;marker-start:none"
         d="M 5.77,0.0 L -2.88,5.0 L -2.88,-5.0 L 5.77,0.0 z "
         id="path3751" />
    </marker>
    <marker
       style="overflow:visible"
       id="TriangleOutS"
       refX="0.0"
       refY="0.0"
       orient="auto"
       inkscape:stockid="TriangleOutS">
      <path
         transform="scale(0.2)"
         style="fill-rule:evenodd;stroke:#000000;stroke-width:1.0pt;marker-start:none"
         d="M 5.77,0.0 L -2.88,5.0 L -2.88,-5.0 L 5.77,0.0 z "
         id="path3754" />
    </marker>
    <marker
       style="overflow:visible"
       id="TriangleOutS-8"
       refX="0"
       refY="0"
       orient="auto"
       inkscape:stockid="TriangleOutS">
      <path
         inkscape:connector-curvature="0"
         transform="scale(0.2,0.2)"
         style="fill-rule:evenodd;stroke:#000000;stroke-width:1pt;marker-start:none"
         d="m 5.77,0 -8.65,5 0,-10 8.65,5 z"
         id="path3754-3" />
    </marker>
    <marker
       style="overflow:visible"
       id="marker3957"
       refX="0"
       refY="0"
       orient="auto"
       inkscape:stockid="TriangleOutS">
      <path
         inkscape:connector-curvature="0"
         transform="scale(0.2,0.2)"
         style="fill-rule:evenodd;stroke:#000000;stroke-width:1pt;marker-start:none"
         d="m 5.77,0 -8.65,5 0,-10 8.65,5 z"
         id="path3959" />
    </marker>
    <marker
       style="overflow:visible"
       id="TriangleOutS-6"
       refX="0"
       refY="0"
       orient="auto"
       inkscape:stockid="TriangleOutS">
      <path
         inkscape:connector-curvature="0"
         transform="scale(0.2,0.2)"
         style="fill-rule:evenodd;stroke:#000000;stroke-width:1pt;marker-start:none"
         d="m 5.77,0 -8.65,5 0,-10 8.65,5 z"
         id="path3754-7" />
    </marker>
    <marker
       style="overflow:visible"
       id="TriangleOutS-2"
       refX="0"
       refY="0"
       orient="auto"
       inkscape:stockid="TriangleOutS">
      <path
         inkscape:connector-curvature="0"
         transform="scale(0.2,0.2)"
         style="fill-rule:evenodd;stroke:#000000;stroke-width:1pt;marker-start:none"
         d="m 5.77,0 -8.65,5 0,-10 8.65,5 z"
         id="path3754-38" />
    </marker>
    <marker
       style="overflow:visible"
       id="TriangleOutS-23"
       refX="0"
       refY="0"
       orient="auto"
       inkscape:stockid="TriangleOutS">
      <path
         inkscape:connector-curvature="0"
         transform="scale(0.2,0.2)"
         style="fill-rule:evenodd;stroke:#000000;stroke-width:1pt;marker-start:none"
         d="m 5.77,0 -8.65,5 0,-10 8.65,5 z"
         id="path3754-2" />
    </marker>
    <marker
       orient="auto"
       markerHeight="3"
       markerWidth="4"
       markerUnits="strokeWidth"
       refY="5"
       refX="10"
       viewBox="0 0 10 10"
       id="ArrowStart">
      <path
         id="path10"
         d="M 10,0 L 0,5 L 10,10 L 10,0 z" />
    </marker>
    <marker
       orient="auto"
       markerHeight="3"
       markerWidth="4"
       markerUnits="strokeWidth"
       refY="5"
       refX="0"
       viewBox="0 0 10 10"
       id="ArrowEnd">
      <path
         id="path7"
         d="M 0,0 L 10,5 L 0,10 L 0,0 z" />
    </marker>
    <inkscape:perspective
       id="perspective29"
       inkscape:persp3d-origin="400 : 245.56767 : 1"
       inkscape:vp_z="800 : 368.3515 : 1"
       inkscape:vp_y="0 : 1000 : 0"
       inkscape:vp_x="0 : 368.3515 : 1"
       sodipodi:type="inkscape:persp3d" />
  </defs>
  <g
     id="g3124"
     transform="matrix(0.6125941,0,0,0.6125941,-2.4808071,-2.1076566)">
    <g
       id="layer1"
       inkscape:label="Layer 1"
       transform="matrix(0.0739176,0,0,0.0739176,-2.9336289,-2.832462)">
      <path
         d="m 926,524.36218 c 0,218.70476 -177.29524,396 -396,396 -218.70476,0 -396,-177.29524 -396,-396 0,-218.70476 177.29524,-396 396,-396 218.70476,0 396,177.29524 396,396 z"
         sodipodi:ry="396"
         sodipodi:rx="396"
         sodipodi:cy="524.36218"
         sodipodi:cx="530"
         id="path2172"
         style="fill:#ffcc00;fill-opacity:1;stroke:#000000;stroke-width:5;stroke-miterlimit:4;stroke-opacity:1;stroke-dasharray:none"
         sodipodi:type="arc" />
      <path
         transform="translate(34,26)"
         d="m 422,334.36218 c 0,38.65994 -8.95431,70 -20,70 -11.04569,0 -20,-31.34006 -20,-70 0,-38.65993 8.95431,-70 20,-70 11.04569,0 20,31.34007 20,70 z"
         sodipodi:ry="70"
         sodipodi:rx="20"
         sodipodi:cy="334.36218"
         sodipodi:cx="402"
         id="path4129"
         style="fill:#000000;fill-opacity:1;stroke:#000000;stroke-width:5;stroke-miterlimit:4;stroke-opacity:1;stroke-dasharray:none"
         sodipodi:type="arc" />
      <path
         sodipodi:type="arc"
         style="fill:#000000;fill-opacity:1;stroke:#000000;stroke-width:5;stroke-miterlimit:4;stroke-opacity:1;stroke-dasharray:none"
         id="path4131"
         sodipodi:cx="402"
         sodipodi:cy="334.36218"
         sodipodi:rx="20"
         sodipodi:ry="70"
         d="m 422,334.36218 c 0,38.65994 -8.95431,70 -20,70 -11.04569,0 -20,-31.34006 -20,-70 0,-38.65993 8.95431,-70 20,-70 11.04569,0 20,31.34007 20,70 z"
         transform="translate(224,26)" />
      <path
         sodipodi:nodetypes="cc"
         id="path4143"
         d="M 784.9525,659.52833 C 521.38087,918.7359 268.73192,664.54394 268.73192,664.54394"
         style="fill:none;stroke:#000000;stroke-width:5.73177052;stroke-linecap:butt;stroke-linejoin:miter;stroke-miterlimit:4;stroke-opacity:1;stroke-dasharray:none"
         inkscape:connector-curvature="0" />
      <path
         sodipodi:type="arc"
         style="fill:#000000;fill-opacity:1;stroke:#000000;stroke-width:5;stroke-miterlimit:4;stroke-opacity:1;stroke-dasharray:none"
         id="path6083"
         sodipodi:cx="402"
         sodipodi:cy="334.36218"
         sodipodi:rx="20"
         sodipodi:ry="70"
         d="m 422,334.36218 c 0,38.65994 -8.95431,70 -20,70 -11.04569,0 -20,-31.34006 -20,-70 0,-38.65993 8.95431,-70 20,-70 11.04569,0 20,31.34007 20,70 z"
         transform="matrix(0.2002419,-0.2528401,0.2528401,0.2002419,618.77944,696.05054)" />
      <path
         transform="matrix(-0.2002419,-0.2528401,-0.2528401,0.2002419,436.85426,700.05054)"
         d="m 422,334.36218 c 0,38.65994 -8.95431,70 -20,70 -11.04569,0 -20,-31.34006 -20,-70 0,-38.65993 8.95431,-70 20,-70 11.04569,0 20,31.34007 20,70 z"
         sodipodi:ry="70"
         sodipodi:rx="20"
         sodipodi:cy="334.36218"
         sodipodi:cx="402"
         id="path6087"
         style="fill:#000000;fill-opacity:1;stroke:#000000;stroke-width:5;stroke-miterlimit:4;stroke-opacity:1;stroke-dasharray:none"
         sodipodi:type="arc" />
    </g>
  </g>
</svg>
