<?xml version="1.0" encoding="UTF-8" standalone="no"?>
<svg
   xmlns:dc="http://purl.org/dc/elements/1.1/"
   xmlns:cc="http://creativecommons.org/ns#"
   xmlns:rdf="http://www.w3.org/1999/02/22-rdf-syntax-ns#"
   xmlns:svg="http://www.w3.org/2000/svg"
   xmlns="http://www.w3.org/2000/svg"
   xmlns:xlink="http://www.w3.org/1999/xlink"
   xmlns:sodipodi="http://sodipodi.sourceforge.net/DTD/sodipodi-0.dtd"
   xmlns:inkscape="http://www.inkscape.org/namespaces/inkscape"
   width="40px"
   height="40px"
   viewBox="0 0 40 40"
   style="stroke:none"
   id="svg2"
   version="1.1"
   inkscape:version="0.48.4 r9939"
   sodipodi:docname="FRAME_CONVERSION.svg">
  <sodipodi:namedview
     pagecolor="#ffffff"
     bordercolor="#666666"
     borderopacity="1"
     objecttolerance="10"
     gridtolerance="10"
     guidetolerance="10"
     inkscape:pageopacity="0"
     inkscape:pageshadow="2"
     inkscape:window-width="1400"
     inkscape:window-height="984"
     id="namedview70"
     showgrid="false"
     inkscape:object-paths="true"
     inkscape:zoom="6.1"
     inkscape:cx="11.049776"
     inkscape:cy="26.895803"
     inkscape:window-x="0"
     inkscape:window-y="27"
     inkscape:window-maximized="1"
     inkscape:current-layer="svg2" />
  <metadata
     id="metadata72">
    <rdf:RDF>
      <cc:Work
         rdf:about="">
        <dc:format>image/svg+xml</dc:format>
        <dc:type
           rdf:resource="http://purl.org/dc/dcmitype/StillImage" />
        <dc:title>Graphic window number 0</dc:title>
      </cc:Work>
    </rdf:RDF>
  </metadata>
  <title
     id="title4">Graphic window number 0</title>
  <desc
     id="desc6">
Creator: GL2PS 1.3.2, (C) 1999-2006 Christophe Geuzaine (geuz@geuz.org)
For: Scilab
CreationDate: Fri Jun  1 17:52:22 2012
</desc>
  <defs
     id="defs8">
    <inkscape:perspective
       id="perspective3867"
       inkscape:persp3d-origin="20 : 13.333333 : 1"
       inkscape:vp_z="40 : 20 : 1"
       inkscape:vp_y="0 : 1000 : 0"
       inkscape:vp_x="-11.311475 : 25.901639 : 1"
       sodipodi:type="inkscape:persp3d" />
    <linearGradient
       id="linearGradient3952">
      <stop
         id="stop3954"
         offset="0"
         style="stop-color:#00a400;stop-opacity:1;" />
      <stop
         id="stop3956"
         offset="1"
         style="stop-color:#00ff97;stop-opacity:1;" />
    </linearGradient>
    <linearGradient
       id="linearGradient6339">
      <stop
         id="stop6341"
         offset="0"
         style="stop-color:#6e9f4b;stop-opacity:1;" />
      <stop
         style="stop-color:#425f2d;stop-opacity:1;"
         offset="0.5"
         id="stop12671" />
      <stop
         style="stop-color:#2a3d1d;stop-opacity:1;"
         offset="1"
         id="stop6347" />
    </linearGradient>
    <linearGradient
       id="linearGradient13206">
      <stop
         style="stop-color:#f2c41f;stop-opacity:1;"
         offset="0"
         id="stop13208" />
      <stop
         style="stop-color:#b9380a;stop-opacity:1;"
         offset="1"
         id="stop2186" />
    </linearGradient>
    <linearGradient
       id="linearGradient5142">
      <stop
         id="stop5144"
         offset="0"
         style="stop-color:#bfd1eb;stop-opacity:1;" />
      <stop
         style="stop-color:#315c9b;stop-opacity:1;"
         offset="0.61538464"
         id="stop5150" />
      <stop
         id="stop5146"
         offset="1"
         style="stop-color:#11233a;stop-opacity:1;" />
    </linearGradient>
    <linearGradient
       gradientTransform="translate(-5.669292,0)"
       gradientUnits="userSpaceOnUse"
       xlink:href="#linearGradient2966"
       id="linearGradient2554"
       y2="22.250591"
       x2="50.988335"
       y1="17.376184"
       x1="48.90625" />
    <linearGradient
       id="linearGradient2966">
      <stop
         offset="0"
         style="stop-color:#ffd1d1;stop-opacity:1"
         id="stop2968" />
      <stop
         offset="0.5"
         style="stop-color:#ff1d1d;stop-opacity:1"
         id="stop3006" />
      <stop
         offset="1"
         style="stop-color:#6f0000;stop-opacity:1"
         id="stop2970" />
    </linearGradient>
    <linearGradient
       gradientTransform="translate(-5.669292,0)"
       gradientUnits="userSpaceOnUse"
       xlink:href="#linearGradient2974"
       id="linearGradient2556"
       y2="22.625"
       x2="47.6875"
       y1="19.8125"
       x1="46" />
    <linearGradient
       id="linearGradient2974">
      <stop
         offset="0"
         style="stop-color:#c1c1c1;stop-opacity:1"
         id="stop2976" />
      <stop
         offset="1"
         style="stop-color:#acacac;stop-opacity:1"
         id="stop2978" />
    </linearGradient>
    <radialGradient
       gradientTransform="matrix(2.923565,0,0,2.029717,-61.55532,-27.88417)"
       gradientUnits="userSpaceOnUse"
       xlink:href="#linearGradient2984"
       id="radialGradient2558"
       fy="27.640751"
       fx="29.053354"
       r="3.2408545"
       cy="27.640751"
       cx="29.053354" />
    <linearGradient
       id="linearGradient2984">
      <stop
         offset="0"
         style="stop-color:#e7e2b8;stop-opacity:1"
         id="stop2986" />
      <stop
         offset="1"
         style="stop-color:#e7e2b8;stop-opacity:0"
         id="stop2988" />
    </linearGradient>
    <linearGradient
       gradientTransform="translate(-5.825542,0.125)"
       gradientUnits="userSpaceOnUse"
       xlink:href="#linearGradient2994"
       id="linearGradient2560"
       y2="30.703125"
       x2="25.514589"
       y1="31.046875"
       x1="25.71875" />
    <linearGradient
       id="linearGradient2994">
      <stop
         offset="0"
         style="stop-color:#000000;stop-opacity:1"
         id="stop2996" />
      <stop
         offset="1"
         style="stop-color:#c9c9c9;stop-opacity:1"
         id="stop2998" />
    </linearGradient>
    <marker
       inkscape:stockid="TriangleOutS"
       orient="auto"
       refY="0"
       refX="0"
       id="TriangleOutS-0"
       style="overflow:visible">
      <path
         id="path3754-9"
         d="m 5.77,0 -8.65,5 0,-10 8.65,5 z"
         style="fill-rule:evenodd;stroke:#000000;stroke-width:1pt;marker-start:none"
         transform="scale(0.2,0.2)" />
    </marker>
    <inkscape:perspective
       id="perspective4628"
       inkscape:persp3d-origin="0.5 : 0.33333333 : 1"
       inkscape:vp_z="1 : 0.5 : 1"
       inkscape:vp_y="0 : 1000 : 0"
       inkscape:vp_x="0 : 0.5 : 1"
       sodipodi:type="inkscape:persp3d" />
    <inkscape:perspective
       sodipodi:type="inkscape:persp3d"
       inkscape:vp_x="0 : 335.76001 : 1"
       inkscape:vp_y="0 : 1000 : 0"
       inkscape:vp_z="753.12 : 335.76001 : 1"
       inkscape:persp3d-origin="376.56 : 223.84001 : 1"
       id="perspective20" />
    <marker
       inkscape:stockid="Arrow2Lend"
       orient="auto"
       refY="0.0"
       refX="0.0"
       id="Arrow2Lend"
       style="overflow:visible;">
      <path
         id="path3626"
         style="font-size:12.0;fill-rule:evenodd;stroke-width:0.62500000;stroke-linejoin:round;"
         d="M 8.7185878,4.0337352 L -2.2072895,0.016013256 L 8.7185884,-4.0017078 C 6.9730900,-1.6296469 6.9831476,1.6157441 8.7185878,4.0337352 z "
         transform="scale(1.1) rotate(180) translate(1,0)" />
    </marker>
    <marker
       inkscape:stockid="TriangleOutL"
       orient="auto"
       refY="0.0"
       refX="0.0"
       id="TriangleOutL"
       style="overflow:visible">
      <path
         id="path3748"
         d="M 5.77,0.0 L -2.88,5.0 L -2.88,-5.0 L 5.77,0.0 z "
         style="fill-rule:evenodd;stroke:#000000;stroke-width:1.0pt;marker-start:none"
         transform="scale(0.8)" />
    </marker>
    <marker
       inkscape:stockid="TriangleOutM"
       orient="auto"
       refY="0.0"
       refX="0.0"
       id="TriangleOutM"
       style="overflow:visible">
      <path
         id="path3751"
         d="M 5.77,0.0 L -2.88,5.0 L -2.88,-5.0 L 5.77,0.0 z "
         style="fill-rule:evenodd;stroke:#000000;stroke-width:1.0pt;marker-start:none"
         transform="scale(0.4)" />
    </marker>
    <marker
       inkscape:stockid="TriangleOutS"
       orient="auto"
       refY="0.0"
       refX="0.0"
       id="TriangleOutS"
       style="overflow:visible">
      <path
         id="path3754"
         d="M 5.77,0.0 L -2.88,5.0 L -2.88,-5.0 L 5.77,0.0 z "
         style="fill-rule:evenodd;stroke:#000000;stroke-width:1.0pt;marker-start:none"
         transform="scale(0.2)" />
    </marker>
    <marker
       inkscape:stockid="TriangleOutS"
       orient="auto"
       refY="0"
       refX="0"
       id="TriangleOutS-8"
       style="overflow:visible">
      <path
         id="path3754-3"
         d="m 5.77,0 -8.65,5 0,-10 8.65,5 z"
         style="fill-rule:evenodd;stroke:#000000;stroke-width:1pt;marker-start:none"
         transform="scale(0.2,0.2)"
         inkscape:connector-curvature="0" />
    </marker>
    <marker
       inkscape:stockid="TriangleOutS"
       orient="auto"
       refY="0"
       refX="0"
       id="marker3957"
       style="overflow:visible">
      <path
         id="path3959"
         d="m 5.77,0 -8.65,5 0,-10 8.65,5 z"
         style="fill-rule:evenodd;stroke:#000000;stroke-width:1pt;marker-start:none"
         transform="scale(0.2,0.2)"
         inkscape:connector-curvature="0" />
    </marker>
    <marker
       inkscape:stockid="TriangleOutS"
       orient="auto"
       refY="0"
       refX="0"
       id="TriangleOutS-6"
       style="overflow:visible">
      <path
         id="path3754-7"
         d="m 5.77,0 -8.65,5 0,-10 8.65,5 z"
         style="fill-rule:evenodd;stroke:#000000;stroke-width:1pt;marker-start:none"
         transform="scale(0.2,0.2)"
         inkscape:connector-curvature="0" />
    </marker>
    <marker
       inkscape:stockid="TriangleOutS"
       orient="auto"
       refY="0"
       refX="0"
       id="TriangleOutS-2"
       style="overflow:visible">
      <path
         id="path3754-38"
         d="m 5.77,0 -8.65,5 0,-10 8.65,5 z"
         style="fill-rule:evenodd;stroke:#000000;stroke-width:1pt;marker-start:none"
         transform="scale(0.2,0.2)"
         inkscape:connector-curvature="0" />
    </marker>
    <marker
       inkscape:stockid="TriangleOutS"
       orient="auto"
       refY="0"
       refX="0"
       id="TriangleOutS-23"
       style="overflow:visible">
      <path
         id="path3754-2"
         d="m 5.77,0 -8.65,5 0,-10 8.65,5 z"
         style="fill-rule:evenodd;stroke:#000000;stroke-width:1pt;marker-start:none"
         transform="scale(0.2,0.2)"
         inkscape:connector-curvature="0" />
    </marker>
    <marker
       inkscape:stockid="TriangleOutSR"
       orient="auto"
       refY="0.0"
       refX="0.0"
       id="TriangleOutSR"
       style="overflow:visible">
      <path
         id="path3150"
         d="M 5.77,0.0 L -2.88,5.0 L -2.88,-5.0 L 5.77,0.0 z "
         style="marker-start:none;stroke:#ff0000;stroke-width:1.0pt;fill:#ff0000;fill-rule:evenodd"
         transform="scale(0.2)" />
    </marker>
    <marker
       inkscape:stockid="TriangleOutSz"
       orient="auto"
       refY="0.0"
       refX="0.0"
       id="TriangleOutSz"
       style="overflow:visible">
      <path
         id="path3365"
         d="M 5.77,0.0 L -2.88,5.0 L -2.88,-5.0 L 5.77,0.0 z "
         style="marker-start:none;stroke:#ff0000;stroke-width:1.0pt;fill:#ff0000;fill-rule:evenodd"
         transform="scale(0.2)" />
    </marker>
    <marker
       inkscape:stockid="TriangleOutSN"
       orient="auto"
       refY="0.0"
       refX="0.0"
       id="TriangleOutSN"
       style="overflow:visible">
      <path
         id="path3584"
         d="M 5.77,0.0 L -2.88,5.0 L -2.88,-5.0 L 5.77,0.0 z "
         style="marker-start:none;stroke:#ff0000;stroke-width:1.0pt;fill:#ff0000;fill-rule:evenodd"
         transform="scale(0.2)" />
    </marker>
    <marker
       inkscape:stockid="TriangleOutSR"
       orient="auto"
       refY="0"
       refX="0"
       id="TriangleOutSR-3"
       style="overflow:visible">
      <path
         inkscape:connector-curvature="0"
         id="path3150-0"
         d="m 5.77,0 -8.65,5 0,-10 8.65,5 z"
         style="fill:#ff0000;fill-rule:evenodd;stroke:#ff0000;stroke-width:1pt;marker-start:none"
         transform="scale(0.2,0.2)" />
    </marker>
    <marker
       inkscape:stockid="TriangleOutSN"
       orient="auto"
       refY="0"
       refX="0"
       id="TriangleOutSN-2"
       style="overflow:visible">
      <path
         inkscape:connector-curvature="0"
         id="path3584-6"
         d="m 5.77,0 -8.65,5 0,-10 8.65,5 z"
         style="fill:#ff0000;fill-rule:evenodd;stroke:#ff0000;stroke-width:1pt;marker-start:none"
         transform="scale(0.2,0.2)" />
    </marker>
    <marker
       inkscape:stockid="TriangleOutSz"
       orient="auto"
       refY="0"
       refX="0"
       id="TriangleOutSz-1"
       style="overflow:visible">
      <path
         inkscape:connector-curvature="0"
         id="path3365-7"
         d="m 5.77,0 -8.65,5 0,-10 8.65,5 z"
         style="fill:#ff0000;fill-rule:evenodd;stroke:#ff0000;stroke-width:1pt;marker-start:none"
         transform="scale(0.2,0.2)" />
    </marker>
    <marker
       inkscape:stockid="TriangleOutSN5"
       orient="auto"
       refY="0.0"
       refX="0.0"
       id="TriangleOutSN5"
       style="overflow:visible">
      <path
         id="path4749"
         d="M 5.77,0.0 L -2.88,5.0 L -2.88,-5.0 L 5.77,0.0 z "
         style="fill-rule:evenodd;marker-start:none;stroke:#00a400;stroke-width:1.0pt;fill:#00a400"
         transform="scale(0.2)" />
    </marker>
    <marker
       inkscape:stockid="TriangleOutSRO"
       orient="auto"
       refY="0.0"
       refX="0.0"
       id="TriangleOutSRO"
       style="overflow:visible">
      <path
         id="path4930"
         d="M 5.77,0.0 L -2.88,5.0 L -2.88,-5.0 L 5.77,0.0 z "
         style="fill-rule:evenodd;marker-start:none;stroke:#00a400;stroke-width:1.0pt;fill:#00a400"
         transform="scale(0.2)" />
    </marker>
    <marker
       inkscape:stockid="TriangleOutSzc"
       orient="auto"
       refY="0.0"
       refX="0.0"
       id="TriangleOutSzc"
       style="overflow:visible">
      <path
         id="path5115"
         d="M 5.77,0.0 L -2.88,5.0 L -2.88,-5.0 L 5.77,0.0 z "
         style="fill-rule:evenodd;marker-start:none;stroke:#00a400;stroke-width:1.0pt;fill:#00a400"
         transform="scale(0.2)" />
    </marker>
    <marker
       inkscape:stockid="TriangleOutSRb"
       orient="auto"
       refY="0.0"
       refX="0.0"
       id="TriangleOutSRb"
       style="overflow:visible">
      <path
         id="path5315"
         d="M 5.77,0.0 L -2.88,5.0 L -2.88,-5.0 L 5.77,0.0 z "
         style="fill-rule:evenodd;marker-start:none;stroke:#0000ff;stroke-width:1.0pt;fill:#0000ff"
         transform="scale(0.2)" />
    </marker>
    <marker
       inkscape:stockid="TriangleOutSNc"
       orient="auto"
       refY="0.0"
       refX="0.0"
       id="TriangleOutSNc"
       style="overflow:visible">
      <path
         id="path5496"
         d="M 5.77,0.0 L -2.88,5.0 L -2.88,-5.0 L 5.77,0.0 z "
         style="fill-rule:evenodd;marker-start:none;stroke:#0000ff;stroke-width:1.0pt;fill:#0000ff"
         transform="scale(0.2)" />
    </marker>
    <marker
       inkscape:stockid="TriangleOutSzl"
       orient="auto"
       refY="0.0"
       refX="0.0"
       id="TriangleOutSzl"
       style="overflow:visible">
      <path
         id="path5681"
         d="M 5.77,0.0 L -2.88,5.0 L -2.88,-5.0 L 5.77,0.0 z "
         style="fill-rule:evenodd;marker-start:none;stroke:#0000ff;stroke-width:1.0pt;fill:#0000ff"
         transform="scale(0.2)" />
    </marker>
  </defs>
  <path
     transform="translate(-2.8373056,-0.20885275)"
     d="m 19.508197,21.899855 a 1.7795422,1.5427687 0 1 1 -3.559084,0 1.7795422,1.5427687 0 1 1 3.559084,0 z"
     sodipodi:ry="1.5427687"
     sodipodi:rx="1.7795422"
     sodipodi:cy="21.899855"
     sodipodi:cx="17.728655"
     id="path3883"
     style="opacity:0.97000002;fill:#0000ff;fill-opacity:1"
     sodipodi:type="arc" />
  <path
     id="path3600"
     d="m 14.347524,21.681331 18.293875,2.518188"
     style="fill:#ff0000;fill-opacity:1;stroke:#0000ff;stroke-width:2;stroke-linecap:butt;stroke-linejoin:miter;stroke-miterlimit:4;stroke-opacity:1;stroke-dasharray:none;marker-end:url(#TriangleOutSzl)"
     inkscape:connector-curvature="0" />
  <path
     id="path3600-9"
     d="M 15.241768,21.698523 4.501446,32.139475"
     style="fill:#ff0000;fill-opacity:1;stroke:#0000ff;stroke-width:2;stroke-linecap:butt;stroke-linejoin:miter;stroke-miterlimit:4;stroke-opacity:1;stroke-dasharray:none;marker-end:url(#TriangleOutSNc)"
     inkscape:connector-curvature="0" />
  <path
     id="path3600-6"
     d="m 14.65048,23.042242 0,-10.911097 0,-7.5552786"
     style="fill:#0000ff;fill-opacity:1;stroke:#0000ff;stroke-width:2;stroke-linecap:butt;stroke-linejoin:miter;stroke-miterlimit:4;stroke-opacity:1;stroke-dasharray:none;marker-end:url(#TriangleOutSRb)"
     inkscape:connector-curvature="0"
     sodipodi:nodetypes="ccc" />
  <path
     transform="matrix(0.72680933,0.68683928,-0.68683928,0.72680933,23.069436,-11.121588)"
     d="m 19.508197,21.899855 a 1.7795422,1.5427687 0 1 1 -3.559084,0 1.7795422,1.5427687 0 1 1 3.559084,0 z"
     sodipodi:ry="1.5427687"
     sodipodi:rx="1.7795422"
     sodipodi:cy="21.899855"
     sodipodi:cx="17.728655"
     id="path3883-0"
     style="opacity:0.97000002;fill:#ffffff;fill-opacity:0;stroke:none"
     sodipodi:type="arc" />
  <path
     id="path3600-7"
     d="m 17.542952,14.542807 6.37302,17.331815"
     style="fill:#ffffff;fill-opacity:0;stroke:#00a400;stroke-width:2;stroke-linecap:butt;stroke-linejoin:miter;stroke-miterlimit:4;stroke-opacity:1;stroke-dasharray:none;marker-end:url(#TriangleOutSzc)"
     inkscape:connector-curvature="0" />
  <path
     id="path3600-9-5"
     d="M 17.947963,15.340263 3.6847635,10.765426"
     style="fill:#ffffff;fill-opacity:0;stroke:#00a400;stroke-width:2;stroke-linecap:butt;stroke-linejoin:miter;stroke-miterlimit:4;stroke-opacity:1;stroke-dasharray:none;marker-end:url(#TriangleOutSN5)"
     inkscape:connector-curvature="0" />
  <path
     id="path3600-6-7"
     d="M 16.483986,15.4497 26.11555,10.322809 32.78483,6.7727443"
     style="fill:#ffffff;fill-opacity:0;stroke:#00a400;stroke-width:2;stroke-linecap:butt;stroke-linejoin:miter;stroke-miterlimit:4;stroke-opacity:1;stroke-dasharray:none;marker-end:url(#TriangleOutSRO)"
     inkscape:connector-curvature="0"
     sodipodi:nodetypes="ccc" />
  <path
     transform="matrix(0.46987867,0.88273101,-0.88273101,0.46987867,28.339221,-10.691714)"
     d="m 19.508197,21.899855 a 1.7795422,1.5427687 0 1 1 -3.559084,0 1.7795422,1.5427687 0 1 1 3.559084,0 z"
     sodipodi:ry="1.5427687"
     sodipodi:rx="1.7795422"
     sodipodi:cy="21.899855"
     sodipodi:cx="17.728655"
     id="path3883-7"
     style="opacity:0.97000002;fill:#00a400;fill-opacity:1;stroke:none"
     sodipodi:type="arc" />
</svg>
