<?xml version="1.0" encoding="UTF-8" standalone="no"?>
<svg
   xmlns:dc="http://purl.org/dc/elements/1.1/"
   xmlns:cc="http://creativecommons.org/ns#"
   xmlns:rdf="http://www.w3.org/1999/02/22-rdf-syntax-ns#"
   xmlns:svg="http://www.w3.org/2000/svg"
   xmlns="http://www.w3.org/2000/svg"
   xmlns:xlink="http://www.w3.org/1999/xlink"
   xmlns:sodipodi="http://sodipodi.sourceforge.net/DTD/sodipodi-0.dtd"
   xmlns:inkscape="http://www.inkscape.org/namespaces/inkscape"
   width="40px"
   height="40px"
   viewBox="0 0 40 40"
   style="stroke:none"
   id="svg2"
   version="1.1"
   inkscape:version="0.48.1 r9760"
   sodipodi:docname="GROUND_STATIONS.svg">
  <metadata
     id="metadata72">
    <rdf:RDF>
      <cc:Work
         rdf:about="">
        <dc:format>image/svg+xml</dc:format>
        <dc:type
           rdf:resource="http://purl.org/dc/dcmitype/StillImage" />
        <dc:title>Graphic window number 0</dc:title>
      </cc:Work>
    </rdf:RDF>
  </metadata>
  <sodipodi:namedview
     pagecolor="#ffffff"
     bordercolor="#666666"
     borderopacity="1"
     objecttolerance="10"
     gridtolerance="10"
     guidetolerance="10"
     inkscape:pageopacity="0"
     inkscape:pageshadow="2"
     inkscape:window-width="699"
     inkscape:window-height="992"
     id="namedview70"
     showgrid="false"
     inkscape:object-paths="true"
     inkscape:zoom="8.9638645"
     inkscape:cx="24.636982"
     inkscape:cy="21.13889"
     inkscape:window-x="0"
     inkscape:window-y="26"
     inkscape:window-maximized="0"
     inkscape:current-layer="g3124" />
  <title
     id="title4">Graphic window number 0</title>
  <desc
     id="desc6">
Creator: GL2PS 1.3.2, (C) 1999-2006 Christophe Geuzaine (geuz@geuz.org)
For: Scilab
CreationDate: Fri Jun  1 17:52:22 2012
</desc>
  <defs
     id="defs8">
    <inkscape:perspective
       sodipodi:type="inkscape:persp3d"
       inkscape:vp_x="-11.311475 : 25.901639 : 1"
       inkscape:vp_y="0 : 1000 : 0"
       inkscape:vp_z="40 : 20 : 1"
       inkscape:persp3d-origin="20 : 13.333333 : 1"
       id="perspective3867" />
    <linearGradient
       id="linearGradient3952">
      <stop
         style="stop-color:#00a400;stop-opacity:1;"
         offset="0"
         id="stop3954" />
      <stop
         style="stop-color:#00ff97;stop-opacity:1;"
         offset="1"
         id="stop3956" />
    </linearGradient>
    <radialGradient
       inkscape:collect="always"
       xlink:href="#linearGradient6339"
       id="radialGradient24412"
       gradientUnits="userSpaceOnUse"
       gradientTransform="matrix(1.454579,-0.103027,0.118439,1.802414,-328.325,-918.4274)"
       cx="406.20645"
       cy="1189.2123"
       fx="406.20645"
       fy="1189.2123"
       r="88.938736" />
    <linearGradient
       id="linearGradient6339">
      <stop
         style="stop-color:#6e9f4b;stop-opacity:1;"
         offset="0"
         id="stop6341" />
      <stop
         id="stop12671"
         offset="0.5"
         style="stop-color:#425f2d;stop-opacity:1;" />
      <stop
         id="stop6347"
         offset="1"
         style="stop-color:#2a3d1d;stop-opacity:1;" />
    </linearGradient>
    <radialGradient
       inkscape:collect="always"
       xlink:href="#linearGradient13206"
       id="radialGradient24414"
       gradientUnits="userSpaceOnUse"
       gradientTransform="matrix(1.150346,0,0,1.150346,-16.1173,-74.46758)"
       cx="107.20115"
       cy="495.30679"
       fx="107.20115"
       fy="495.30679"
       r="405.35715" />
    <linearGradient
       id="linearGradient13206">
      <stop
         id="stop13208"
         offset="0"
         style="stop-color:#f2c41f;stop-opacity:1;" />
      <stop
         id="stop2186"
         offset="1"
         style="stop-color:#b9380a;stop-opacity:1;" />
    </linearGradient>
    <radialGradient
       inkscape:collect="always"
       xlink:href="#linearGradient5142"
       id="radialGradient24416"
       gradientUnits="userSpaceOnUse"
       gradientTransform="matrix(2.971416,0.433793,-0.445445,3.041429,176.2001,-314.492)"
       cx="209.15753"
       cy="407.22339"
       fx="209.15753"
       fy="407.22339"
       r="55.703125" />
    <linearGradient
       id="linearGradient5142">
      <stop
         style="stop-color:#bfd1eb;stop-opacity:1;"
         offset="0"
         id="stop5144" />
      <stop
         id="stop5150"
         offset="0.61538464"
         style="stop-color:#315c9b;stop-opacity:1;" />
      <stop
         style="stop-color:#11233a;stop-opacity:1;"
         offset="1"
         id="stop5146" />
    </linearGradient>
    <radialGradient
       inkscape:collect="always"
       xlink:href="#linearGradient4437"
       id="radialGradient24418"
       gradientUnits="userSpaceOnUse"
       cx="136.1499"
       cy="504.90085"
       fx="136.1499"
       fy="504.90085"
       r="406.37308" />
    <linearGradient
       inkscape:collect="always"
       id="linearGradient4437">
      <stop
         style="stop-color:#ffffff;stop-opacity:0.85624999"
         offset="0"
         id="stop4439" />
      <stop
         style="stop-color:#ffffff;stop-opacity:0;"
         offset="1"
         id="stop4441" />
    </linearGradient>
    <linearGradient
       x1="48.90625"
       y1="17.376184"
       x2="50.988335"
       y2="22.250591"
       id="linearGradient2554"
       xlink:href="#linearGradient2966"
       gradientUnits="userSpaceOnUse"
       gradientTransform="translate(-5.669292,0)" />
    <linearGradient
       id="linearGradient2966">
      <stop
         id="stop2968"
         style="stop-color:#ffd1d1;stop-opacity:1"
         offset="0" />
      <stop
         id="stop3006"
         style="stop-color:#ff1d1d;stop-opacity:1"
         offset="0.5" />
      <stop
         id="stop2970"
         style="stop-color:#6f0000;stop-opacity:1"
         offset="1" />
    </linearGradient>
    <linearGradient
       x1="46"
       y1="19.8125"
       x2="47.6875"
       y2="22.625"
       id="linearGradient2556"
       xlink:href="#linearGradient2974"
       gradientUnits="userSpaceOnUse"
       gradientTransform="translate(-5.669292,0)" />
    <linearGradient
       id="linearGradient2974">
      <stop
         id="stop2976"
         style="stop-color:#c1c1c1;stop-opacity:1"
         offset="0" />
      <stop
         id="stop2978"
         style="stop-color:#acacac;stop-opacity:1"
         offset="1" />
    </linearGradient>
    <radialGradient
       cx="29.053354"
       cy="27.640751"
       r="3.2408545"
       fx="29.053354"
       fy="27.640751"
       id="radialGradient2558"
       xlink:href="#linearGradient2984"
       gradientUnits="userSpaceOnUse"
       gradientTransform="matrix(2.923565,0,0,2.029717,-61.55532,-27.88417)" />
    <linearGradient
       id="linearGradient2984">
      <stop
         id="stop2986"
         style="stop-color:#e7e2b8;stop-opacity:1"
         offset="0" />
      <stop
         id="stop2988"
         style="stop-color:#e7e2b8;stop-opacity:0"
         offset="1" />
    </linearGradient>
    <linearGradient
       x1="25.71875"
       y1="31.046875"
       x2="25.514589"
       y2="30.703125"
       id="linearGradient2560"
       xlink:href="#linearGradient2994"
       gradientUnits="userSpaceOnUse"
       gradientTransform="translate(-5.825542,0.125)" />
    <linearGradient
       id="linearGradient2994">
      <stop
         id="stop2996"
         style="stop-color:#000000;stop-opacity:1"
         offset="0" />
      <stop
         id="stop2998"
         style="stop-color:#c9c9c9;stop-opacity:1"
         offset="1" />
    </linearGradient>
    <marker
       style="overflow:visible"
       id="TriangleOutS-0"
       refX="0"
       refY="0"
       orient="auto"
       inkscape:stockid="TriangleOutS">
      <path
         transform="scale(0.2,0.2)"
         style="fill-rule:evenodd;stroke:#000000;stroke-width:1pt;marker-start:none"
         d="m 5.77,0 -8.65,5 0,-10 8.65,5 z"
         id="path3754-9" />
    </marker>
    <inkscape:perspective
       sodipodi:type="inkscape:persp3d"
       inkscape:vp_x="0 : 0.5 : 1"
       inkscape:vp_y="0 : 1000 : 0"
       inkscape:vp_z="1 : 0.5 : 1"
       inkscape:persp3d-origin="0.5 : 0.33333333 : 1"
       id="perspective4628" />
    <inkscape:perspective
       id="perspective20"
       inkscape:persp3d-origin="376.56 : 223.84001 : 1"
       inkscape:vp_z="753.12 : 335.76001 : 1"
       inkscape:vp_y="0 : 1000 : 0"
       inkscape:vp_x="0 : 335.76001 : 1"
       sodipodi:type="inkscape:persp3d" />
    <marker
       style="overflow:visible;"
       id="Arrow2Lend"
       refX="0.0"
       refY="0.0"
       orient="auto"
       inkscape:stockid="Arrow2Lend">
      <path
         transform="scale(1.1) rotate(180) translate(1,0)"
         d="M 8.7185878,4.0337352 L -2.2072895,0.016013256 L 8.7185884,-4.0017078 C 6.9730900,-1.6296469 6.9831476,1.6157441 8.7185878,4.0337352 z "
         style="font-size:12.0;fill-rule:evenodd;stroke-width:0.62500000;stroke-linejoin:round;"
         id="path3626" />
    </marker>
    <marker
       style="overflow:visible"
       id="TriangleOutL"
       refX="0.0"
       refY="0.0"
       orient="auto"
       inkscape:stockid="TriangleOutL">
      <path
         transform="scale(0.8)"
         style="fill-rule:evenodd;stroke:#000000;stroke-width:1.0pt;marker-start:none"
         d="M 5.77,0.0 L -2.88,5.0 L -2.88,-5.0 L 5.77,0.0 z "
         id="path3748" />
    </marker>
    <marker
       style="overflow:visible"
       id="TriangleOutM"
       refX="0.0"
       refY="0.0"
       orient="auto"
       inkscape:stockid="TriangleOutM">
      <path
         transform="scale(0.4)"
         style="fill-rule:evenodd;stroke:#000000;stroke-width:1.0pt;marker-start:none"
         d="M 5.77,0.0 L -2.88,5.0 L -2.88,-5.0 L 5.77,0.0 z "
         id="path3751" />
    </marker>
    <marker
       style="overflow:visible"
       id="TriangleOutS"
       refX="0.0"
       refY="0.0"
       orient="auto"
       inkscape:stockid="TriangleOutS">
      <path
         transform="scale(0.2)"
         style="fill-rule:evenodd;stroke:#000000;stroke-width:1.0pt;marker-start:none"
         d="M 5.77,0.0 L -2.88,5.0 L -2.88,-5.0 L 5.77,0.0 z "
         id="path3754" />
    </marker>
    <marker
       style="overflow:visible"
       id="TriangleOutS-8"
       refX="0"
       refY="0"
       orient="auto"
       inkscape:stockid="TriangleOutS">
      <path
         inkscape:connector-curvature="0"
         transform="scale(0.2,0.2)"
         style="fill-rule:evenodd;stroke:#000000;stroke-width:1pt;marker-start:none"
         d="m 5.77,0 -8.65,5 0,-10 8.65,5 z"
         id="path3754-3" />
    </marker>
    <marker
       style="overflow:visible"
       id="marker3957"
       refX="0"
       refY="0"
       orient="auto"
       inkscape:stockid="TriangleOutS">
      <path
         inkscape:connector-curvature="0"
         transform="scale(0.2,0.2)"
         style="fill-rule:evenodd;stroke:#000000;stroke-width:1pt;marker-start:none"
         d="m 5.77,0 -8.65,5 0,-10 8.65,5 z"
         id="path3959" />
    </marker>
    <marker
       style="overflow:visible"
       id="TriangleOutS-6"
       refX="0"
       refY="0"
       orient="auto"
       inkscape:stockid="TriangleOutS">
      <path
         inkscape:connector-curvature="0"
         transform="scale(0.2,0.2)"
         style="fill-rule:evenodd;stroke:#000000;stroke-width:1pt;marker-start:none"
         d="m 5.77,0 -8.65,5 0,-10 8.65,5 z"
         id="path3754-7" />
    </marker>
    <marker
       style="overflow:visible"
       id="TriangleOutS-2"
       refX="0"
       refY="0"
       orient="auto"
       inkscape:stockid="TriangleOutS">
      <path
         inkscape:connector-curvature="0"
         transform="scale(0.2,0.2)"
         style="fill-rule:evenodd;stroke:#000000;stroke-width:1pt;marker-start:none"
         d="m 5.77,0 -8.65,5 0,-10 8.65,5 z"
         id="path3754-38" />
    </marker>
    <marker
       style="overflow:visible"
       id="TriangleOutS-23"
       refX="0"
       refY="0"
       orient="auto"
       inkscape:stockid="TriangleOutS">
      <path
         inkscape:connector-curvature="0"
         transform="scale(0.2,0.2)"
         style="fill-rule:evenodd;stroke:#000000;stroke-width:1pt;marker-start:none"
         d="m 5.77,0 -8.65,5 0,-10 8.65,5 z"
         id="path3754-2" />
    </marker>
    <marker
       orient="auto"
       markerHeight="3"
       markerWidth="4"
       markerUnits="strokeWidth"
       refY="5"
       refX="10"
       viewBox="0 0 10 10"
       id="ArrowStart">
      <path
         id="path10"
         d="M 10,0 L 0,5 L 10,10 L 10,0 z" />
    </marker>
    <marker
       orient="auto"
       markerHeight="3"
       markerWidth="4"
       markerUnits="strokeWidth"
       refY="5"
       refX="0"
       viewBox="0 0 10 10"
       id="ArrowEnd">
      <path
         id="path7"
         d="M 0,0 L 10,5 L 0,10 L 0,0 z" />
    </marker>
    <inkscape:perspective
       id="perspective29"
       inkscape:persp3d-origin="400 : 245.56767 : 1"
       inkscape:vp_z="800 : 368.3515 : 1"
       inkscape:vp_y="0 : 1000 : 0"
       inkscape:vp_x="0 : 368.3515 : 1"
       sodipodi:type="inkscape:persp3d" />
    <linearGradient
       gradientTransform="matrix(0.965926,-0.258819,0.258819,0.965926,-54.8319,26.8039)"
       gradientUnits="userSpaceOnUse"
       xlink:href="#linearGradient2924"
       id="linearGradient3066"
       y2="112.87871"
       x2="449.01434"
       y1="264.82086"
       x1="-25.813234" />
    <linearGradient
       gradientUnits="userSpaceOnUse"
       xlink:href="#linearGradient2924"
       id="linearGradient3064"
       y2="217.86824"
       x2="182.81322"
       y1="16.373131"
       x1="296.49551" />
    <linearGradient
       gradientTransform="matrix(0.965926,-0.258819,0.258819,0.965926,-54.8319,26.8039)"
       gradientUnits="userSpaceOnUse"
       xlink:href="#linearGradient2924"
       id="linearGradient3062"
       y2="128.54333"
       x2="480.77719"
       y1="278.31656"
       x1="93.615692" />
    <linearGradient
       gradientTransform="translate(-1.944528,0)"
       gradientUnits="userSpaceOnUse"
       xlink:href="#linearGradient2924"
       id="linearGradient3060"
       y2="278.5614"
       x2="296.29919"
       y1="278.5614"
       x1="156.95625" />
    <linearGradient
       gradientUnits="userSpaceOnUse"
       xlink:href="#linearGradient2924"
       id="linearGradient3058"
       y2="303.07791"
       x2="317.69141"
       y1="303.07791"
       x1="137.55148" />
    <linearGradient
       gradientUnits="userSpaceOnUse"
       xlink:href="#linearGradient2924"
       id="linearGradient2986"
       y2="303.07791"
       x2="317.69141"
       y1="303.07791"
       x1="137.55148" />
    <linearGradient
       gradientTransform="translate(-1.944528,0)"
       gradientUnits="userSpaceOnUse"
       xlink:href="#linearGradient2924"
       id="linearGradient2978"
       y2="278.5614"
       x2="296.29919"
       y1="278.5614"
       x1="156.95625" />
    <linearGradient
       gradientTransform="matrix(0.965926,-0.258819,0.258819,0.965926,-54.8319,26.8039)"
       gradientUnits="userSpaceOnUse"
       xlink:href="#linearGradient2924"
       id="linearGradient2946"
       y2="112.87871"
       x2="449.01434"
       y1="264.82086"
       x1="-25.813234" />
    <linearGradient
       gradientUnits="userSpaceOnUse"
       xlink:href="#linearGradient2924"
       id="linearGradient2938"
       y2="217.86824"
       x2="182.81322"
       y1="16.373131"
       x1="296.49551" />
    <linearGradient
       gradientTransform="matrix(0.965926,-0.258819,0.258819,0.965926,-54.8319,26.8039)"
       gradientUnits="userSpaceOnUse"
       xlink:href="#linearGradient2924"
       id="linearGradient2930"
       y2="128.54333"
       x2="480.77719"
       y1="278.31656"
       x1="93.615692" />
    <linearGradient
       id="linearGradient2889">
      <stop
         id="stop2891"
         offset="0"
         style="stop-color:#a0a3e1;stop-opacity:1" />
      <stop
         id="stop2893"
         offset="1"
         style="stop-color:#dedcfa;stop-opacity:1" />
    </linearGradient>
    <linearGradient
       gradientUnits="userSpaceOnUse"
       xlink:href="#linearGradient2889"
       id="linearGradient3199"
       y2="26.290426"
       x2="263.82959"
       y1="304.50995"
       x1="92.604424" />
    <linearGradient
       id="linearGradient2870">
      <stop
         id="stop2872"
         offset="0"
         style="stop-color:#c3c3c3;stop-opacity:1" />
      <stop
         id="stop2874"
         offset="1"
         style="stop-color:#595959;stop-opacity:1" />
    </linearGradient>
    <linearGradient
       id="linearGradient2924">
      <stop
         id="stop2926"
         offset="0"
         style="stop-color:black;stop-opacity:1" />
      <stop
         id="stop2928"
         offset="1"
         style="stop-color:white;stop-opacity:1" />
    </linearGradient>
  </defs>
  <g
     id="g3124"
     transform="matrix(0.6125941,0,0,0.6125941,-2.4808071,-2.1076566)">
    <g
       id="layer1"
       transform="matrix(0.17007875,0,0,0.17007875,2.9927435,4.4279239)">
      <path
         id="path2869"
         style="fill:url(#linearGradient3199);fill-opacity:1;stroke:none"
         transform="matrix(0.851641,-0.524127,0.524127,0.851641,-45.27941,132.512)"
         d="m 374,169 a 190,152 0 1 1 -380,0 190,152 0 1 1 380,0 z"
         inkscape:connector-curvature="0" />
      <g
         id="g3032"
         transform="translate(-1.587324,2.00649)">
        <g
           id="g2996"
           style="opacity:0.3;fill:#000000;fill-opacity:1"
           transform="translate(12,12)">
          <path
             id="path2988"
             style="fill:#000000;fill-opacity:1;fill-rule:evenodd;stroke:#000000;stroke-width:1.56382024;stroke-linecap:round;stroke-linejoin:round;stroke-miterlimit:4;stroke-opacity:1;stroke-dasharray:none;stroke-dashoffset:12.5"
             transform="matrix(1.009804,0,0,0.911112,-4.422882,27.29381)"
             d="m 270.8219,303.07791 a 54.09367,15.909903 0 1 1 -108.18734,0 54.09367,15.909903 0 1 1 108.18734,0 z"
             inkscape:connector-curvature="0" />
          <path
             id="path2990"
             style="fill:#000000;fill-opacity:1;fill-rule:evenodd;stroke:#000000;stroke-width:1.5;stroke-linecap:round;stroke-linejoin:round;stroke-miterlimit:4;stroke-opacity:1;stroke-dasharray:none;stroke-dashoffset:12.5"
             d="m 246.24995,219.92358 0,84.56854 c 0,0 -15.9099,4.70711 -31.8198,4.70711 -15.9099,0 -31.81981,-4.70711 -31.81981,-4.70711 l 0,-56.56854"
             inkscape:connector-curvature="0" />
          <path
             id="path2992"
             style="fill:#000000;fill-opacity:1;fill-rule:nonzero;stroke:#000000;stroke-width:1.5;stroke-linecap:round;stroke-linejoin:round;stroke-miterlimit:4;stroke-opacity:1;stroke-dasharray:none;stroke-dashoffset:12.5"
             d="M 255.71869,238.14243 C 169.84119,293.16679 91.341334,225.11895 89.456034,222.11158 87.570744,219.10422 84.961914,215.61566 85.828257,211.86933 102.47075,139.9022 224.75338,64.840487 298.20135,82.596685 c 3.70945,0.896767 5.70489,4.73101 7.5902,7.73838 1.88529,3.00736 34.79964,93.426945 -50.07286,147.807365 z"
             inkscape:connector-curvature="0" />
          <path
             id="path2994"
             style="fill:#000000;fill-opacity:1;fill-rule:evenodd;stroke:#000000;stroke-width:1.5;stroke-linecap:round;stroke-linejoin:round;stroke-miterlimit:4;stroke-opacity:1;stroke-dasharray:none;stroke-dashoffset:12.5"
             d="m 291.37153,130.37171 c -17.71386,37.0193 -74.17135,78.33953 -126.02119,92.23265 -51.84985,13.89312 -79.55442,-4.87595 -61.84057,-41.89524 17.71386,-37.0193 74.17135,-78.33951 126.0212,-92.232635 51.84984,-13.89312 79.55441,4.87594 61.84056,41.895225 z m 12.29032,-2.5612 c -19.9943,41.80114 -69.71272,84.70063 -142.25963,104.13951 -58.533,15.68387 -89.810794,-5.51274 -69.816486,-47.31388 19.994296,-41.80115 65.849256,-83.66543 142.259626,-104.139515 58.53302,-15.683876 89.8108,5.51275 69.81649,47.313885 z"
             inkscape:connector-curvature="0" />
        </g>
        <g
           id="g3002">
          <path
             id="path2959"
             style="fill:url(#linearGradient3058);fill-opacity:1;fill-rule:evenodd;stroke:#000000;stroke-width:1.56382024;stroke-linecap:round;stroke-linejoin:round;stroke-miterlimit:4;stroke-opacity:1;stroke-dasharray:none;stroke-dashoffset:12.5"
             transform="matrix(1.009804,0,0,0.911112,-4.422882,27.29381)"
             d="m 270.8219,303.07791 a 54.09367,15.909903 0 1 1 -108.18734,0 54.09367,15.909903 0 1 1 108.18734,0 z"
             inkscape:connector-curvature="0" />
          <path
             id="rect2961"
             style="fill:url(#linearGradient3060);fill-opacity:1;fill-rule:evenodd;stroke:#000000;stroke-width:1.5;stroke-linecap:round;stroke-linejoin:round;stroke-miterlimit:4;stroke-opacity:1;stroke-dasharray:none;stroke-dashoffset:12.5"
             d="m 246.24995,219.92358 0,84.56854 c 0,0 -15.9099,4.70711 -31.8198,4.70711 -15.9099,0 -31.81981,-4.70711 -31.81981,-4.70711 l 0,-56.56854"
             inkscape:connector-curvature="0" />
          <path
             id="path2887"
             style="fill:url(#linearGradient3062);fill-opacity:1;fill-rule:nonzero;stroke:#000000;stroke-width:1.5;stroke-linecap:round;stroke-linejoin:round;stroke-miterlimit:4;stroke-opacity:1;stroke-dasharray:none;stroke-dashoffset:12.5"
             d="M 255.71869,238.14243 C 169.84119,293.16679 91.341334,225.11895 89.456034,222.11158 87.570744,219.10422 86.345844,215.67953 85.828257,211.86933 84.793085,204.24892 285.56456,74.032875 298.20135,82.596685 c 3.1592,2.14095 5.70489,4.73101 7.5902,7.73838 1.88529,3.00736 34.79964,93.426945 -50.07286,147.807365 z"
             inkscape:connector-curvature="0" />
          <path
             id="path2896"
             style="fill:url(#linearGradient3064);fill-opacity:1;fill-rule:nonzero;stroke:#000000;stroke-width:0.6277371;stroke-linecap:round;stroke-linejoin:round;stroke-miterlimit:4;stroke-opacity:1;stroke-dasharray:none;stroke-dashoffset:12.5"
             transform="matrix(0.909508,-0.243702,-0.598096,1.250188,117.9638,-24.02205)"
             d="m 318.57143,184.28572 a 110,57.142865 0 1 1 -220.000004,0 110,57.142865 0 1 1 220.000004,0 z"
             inkscape:connector-curvature="0" />
          <path
             id="path2843"
             style="fill:url(#linearGradient3066);fill-opacity:1;fill-rule:evenodd;stroke:#000000;stroke-width:1.5;stroke-linecap:round;stroke-linejoin:round;stroke-miterlimit:4;stroke-opacity:1;stroke-dasharray:none;stroke-dashoffset:12.5"
             d="m 291.37153,130.37171 c -17.71386,37.0193 -74.17135,78.33953 -126.02119,92.23265 -51.84985,13.89312 -79.55442,-4.87595 -61.84057,-41.89524 17.71386,-37.0193 74.17135,-78.33951 126.0212,-92.232635 51.84984,-13.89312 79.55441,4.87594 61.84056,41.895225 z m 12.29032,-2.5612 c -19.9943,41.80114 -69.71272,84.70063 -142.25963,104.13951 -58.533,15.68387 -89.810794,-5.51274 -69.816486,-47.31388 19.994296,-41.80115 65.849256,-83.66543 142.259626,-104.139515 58.53302,-15.683876 89.8108,5.51275 69.81649,47.313885 z"
             inkscape:connector-curvature="0" />
          <g
             id="g2948"
             transform="matrix(0.965926,-0.258819,0.258819,0.965926,-54.8319,26.8039)">
            <path
               id="path2858"
               style="opacity:0.5;fill:#000000;fill-opacity:1;fill-rule:nonzero;stroke:none"
               transform="matrix(0.210726,0,-0.201706,0.233541,211.3346,169.1904)"
               d="m 318.57143,184.28572 a 110,57.142865 0 1 1 -220.000004,0 110,57.142865 0 1 1 220.000004,0 z"
               inkscape:connector-curvature="0" />
            <path
               id="path2860"
               style="fill:#434343;fill-opacity:1;fill-rule:evenodd;stroke:#000000;stroke-width:0.625;stroke-linecap:butt;stroke-linejoin:round;stroke-miterlimit:4;stroke-opacity:1;stroke-dasharray:none"
               d="m 192.50982,218.57864 2.74004,-24.08582 5.12652,4.5078 0.35356,25.8536 -8.22012,-6.27558 z"
               inkscape:connector-curvature="0" />
            <path
               id="path2862"
               style="fill:#686868;fill-opacity:1;fill-rule:evenodd;stroke:#000000;stroke-width:0.625;stroke-linecap:butt;stroke-linejoin:round;stroke-miterlimit:4;stroke-opacity:1;stroke-dasharray:none"
               d="m 216.46306,224.23549 -5.21491,-25.67681 -10.87177,0.44194 0.35356,25.8536 15.73312,-0.61873 z"
               inkscape:connector-curvature="0" />
            <path
               id="path2864"
               style="fill:#8c8c8c;fill-opacity:1;fill-rule:evenodd;stroke:#000000;stroke-width:0.625;stroke-linecap:butt;stroke-linejoin:round;stroke-miterlimit:4;stroke-opacity:1;stroke-dasharray:none"
               d="m 216.46306,224.23549 -5.21491,-25.67681 11.22532,-4.50781 10.66911,24.27334 -16.67952,5.91128 z"
               inkscape:connector-curvature="0" />
            <path
               id="path2866"
               style="fill:#a7a7a7;fill-opacity:1;fill-rule:evenodd;stroke:#000000;stroke-width:0.625;stroke-linecap:butt;stroke-linejoin:round;stroke-miterlimit:4;stroke-opacity:1;stroke-dasharray:none"
               d="m 243.08806,208.73549 -15.46491,-19.67681 -5.14968,4.99219 10.66911,24.27334 9.94548,-9.58872 z"
               inkscape:connector-curvature="0" />
            <path
               id="path2868"
               style="fill:#8c8c8c;fill-opacity:1;fill-rule:evenodd;stroke:#000000;stroke-width:0.625;stroke-linecap:butt;stroke-linejoin:round;stroke-miterlimit:4;stroke-opacity:1;stroke-dasharray:none"
               d="m 243.08806,208.73549 -15.46491,-19.67681 -0.0232,-3.49309 15.3537,18.17454 0.13437,4.99536 z"
               inkscape:connector-curvature="0" />
            <path
               id="path2856"
               style="fill:#999999;fill-opacity:1;fill-rule:nonzero;stroke:#000000;stroke-width:4.46708775;stroke-linecap:round;stroke-linejoin:round;stroke-miterlimit:4;stroke-opacity:1;stroke-dasharray:none;stroke-dashoffset:12.5"
               transform="matrix(0.133326,0,-0.127619,0.146824,207.3604,163.8782)"
               d="m 318.57143,184.28572 a 110,57.142865 0 1 1 -220.000004,0 110,57.142865 0 1 1 220.000004,0 z"
               inkscape:connector-curvature="0" />
          </g>
          <path
             id="path2918"
             style="fill:none;stroke:#242424;stroke-width:4;stroke-linecap:round;stroke-linejoin:round;stroke-miterlimit:4;stroke-opacity:1;stroke-dasharray:none"
             d="m 154.71268,63.550879 13.3229,57.352081"
             inkscape:connector-curvature="0" />
          <path
             id="path2914"
             style="fill:#696969;fill-opacity:1;fill-rule:nonzero;stroke:#242424;stroke-width:13.48054409;stroke-linecap:round;stroke-linejoin:round;stroke-miterlimit:4;stroke-opacity:1;stroke-dasharray:none;stroke-dashoffset:12.5"
             transform="matrix(0.144952,-0.03883968,-0.09588974,0.197121,153.5204,54.14933)"
             d="m 318.57143,184.28572 a 110,57.142865 0 1 1 -220.000004,0 110,57.142865 0 1 1 220.000004,0 z"
             inkscape:connector-curvature="0" />
          <path
             id="path2922"
             style="fill:none;stroke:#242424;stroke-width:4;stroke-linecap:round;stroke-linejoin:round;stroke-miterlimit:4;stroke-opacity:1;stroke-dasharray:none"
             d="M 121.00145,230.86848 154.63259,63.597701"
             inkscape:connector-curvature="0" />
          <path
             id="path2920"
             style="fill:none;stroke:#242424;stroke-width:4;stroke-linecap:round;stroke-linejoin:round;stroke-miterlimit:4;stroke-opacity:1;stroke-dasharray:none"
             d="m 154.42866,63.674551 94.7808,24.131164"
             inkscape:connector-curvature="0" />
          <path
             id="path2901"
             style="fill:none;stroke:#242424;stroke-width:4;stroke-linecap:round;stroke-linejoin:round;stroke-miterlimit:4;stroke-opacity:1;stroke-dasharray:none"
             d="M 154.61886,63.309586 258.92579,175.97652"
             inkscape:connector-curvature="0" />
        </g>
      </g>
    </g>
  </g>
</svg>
