<?xml version="1.0" encoding="UTF-8" standalone="no"?>
<svg
   xmlns:dc="http://purl.org/dc/elements/1.1/"
   xmlns:cc="http://creativecommons.org/ns#"
   xmlns:rdf="http://www.w3.org/1999/02/22-rdf-syntax-ns#"
   xmlns:svg="http://www.w3.org/2000/svg"
   xmlns="http://www.w3.org/2000/svg"
   xmlns:xlink="http://www.w3.org/1999/xlink"
   xmlns:sodipodi="http://sodipodi.sourceforge.net/DTD/sodipodi-0.dtd"
   xmlns:inkscape="http://www.inkscape.org/namespaces/inkscape"
   width="40px"
   height="40px"
   viewBox="0 0 40 40"
   style="stroke:none"
   id="svg2"
   version="1.1"
   inkscape:version="0.48.1 r9760"
   sodipodi:docname="KEPLERIAN_PROPAGATOR.svg">
  <metadata
     id="metadata72">
    <rdf:RDF>
      <cc:Work
         rdf:about="">
        <dc:format>image/svg+xml</dc:format>
        <dc:type
           rdf:resource="http://purl.org/dc/dcmitype/StillImage" />
        <dc:title>Graphic window number 0</dc:title>
      </cc:Work>
    </rdf:RDF>
  </metadata>
  <sodipodi:namedview
     pagecolor="#ffffff"
     bordercolor="#666666"
     borderopacity="1"
     objecttolerance="10"
     gridtolerance="10"
     guidetolerance="10"
     inkscape:pageopacity="0"
     inkscape:pageshadow="2"
     inkscape:window-width="1400"
     inkscape:window-height="992"
     id="namedview70"
     showgrid="false"
     inkscape:zoom="12.2"
     inkscape:cx="20.819671"
     inkscape:cy="20"
     inkscape:window-x="0"
     inkscape:window-y="26"
     inkscape:window-maximized="1"
     inkscape:current-layer="svg2" />
  <title
     id="title4">Graphic window number 0</title>
  <desc
     id="desc6">
Creator: GL2PS 1.3.2, (C) 1999-2006 Christophe Geuzaine (geuz@geuz.org)
For: Scilab
CreationDate: Fri Jun  1 17:52:22 2012
</desc>
  <defs
     id="defs8">
    <radialGradient
       inkscape:collect="always"
       xlink:href="#linearGradient3233"
       id="radialGradient4040"
       gradientUnits="userSpaceOnUse"
       gradientTransform="matrix(1,0,0,0.7985006,0,68.541235)"
       cx="371.5372"
       cy="294.3031"
       fx="371.5372"
       fy="294.3031"
       r="100.5" />
    <linearGradient
       id="linearGradient3233">
      <stop
         id="stop3241"
         offset="0"
         style="stop-color:#f3f1b1;stop-opacity:1;" />
      <stop
         style="stop-color:#dbd767;stop-opacity:1;"
         offset="0.58333331"
         id="stop3245" />
      <stop
         style="stop-color:#c4bd1e;stop-opacity:1;"
         offset="1"
         id="stop3237" />
    </linearGradient>
    <radialGradient
       inkscape:collect="always"
       xlink:href="#linearGradient3233"
       id="radialGradient4036"
       gradientUnits="userSpaceOnUse"
       gradientTransform="matrix(1,0,0,0.7985006,0,68.541235)"
       cx="371.5372"
       cy="294.3031"
       fx="371.5372"
       fy="294.3031"
       r="100.5" />
    <linearGradient
       id="linearGradient3342">
      <stop
         id="stop3344"
         offset="0"
         style="stop-color:#f3f1b1;stop-opacity:1;" />
      <stop
         style="stop-color:#dbd767;stop-opacity:1;"
         offset="0.58333331"
         id="stop3346" />
      <stop
         style="stop-color:#c4bd1e;stop-opacity:1;"
         offset="1"
         id="stop3348" />
    </linearGradient>
    <radialGradient
       inkscape:collect="always"
       xlink:href="#linearGradient3233"
       id="radialGradient4038"
       gradientUnits="userSpaceOnUse"
       gradientTransform="matrix(1,0,0,0.7985006,0,68.541235)"
       cx="371.5372"
       cy="294.3031"
       fx="371.5372"
       fy="294.3031"
       r="100.5" />
    <linearGradient
       id="linearGradient3351">
      <stop
         id="stop3353"
         offset="0"
         style="stop-color:#f3f1b1;stop-opacity:1;" />
      <stop
         style="stop-color:#dbd767;stop-opacity:1;"
         offset="0.58333331"
         id="stop3355" />
      <stop
         style="stop-color:#c4bd1e;stop-opacity:1;"
         offset="1"
         id="stop3357" />
    </linearGradient>
    <linearGradient
       inkscape:collect="always"
       xlink:href="#linearGradient3249"
       id="linearGradient4042"
       gradientUnits="userSpaceOnUse"
       x1="388.39679"
       y1="383.40533"
       x2="436.40436"
       y2="456.40533" />
    <linearGradient
       id="linearGradient3249">
      <stop
         style="stop-color:#c4bd1e;stop-opacity:1;"
         offset="0"
         id="stop3251" />
      <stop
         style="stop-color:#808000;stop-opacity:1;"
         offset="1"
         id="stop3253" />
    </linearGradient>
    <linearGradient
       inkscape:collect="always"
       xlink:href="#linearGradient3287"
       id="linearGradient2694"
       gradientUnits="userSpaceOnUse"
       gradientTransform="translate(-11.369226,6.6010311)"
       x1="499.49463"
       y1="445.3165"
       x2="504.90192"
       y2="443.75977" />
    <linearGradient
       id="linearGradient3287">
      <stop
         id="stop3289"
         offset="0"
         style="stop-color:#787878;stop-opacity:1;" />
      <stop
         style="stop-color:#b7b7b7;stop-opacity:1;"
         offset="0.5"
         id="stop3293" />
      <stop
         id="stop3291"
         offset="1"
         style="stop-color:#939393;stop-opacity:1;" />
    </linearGradient>
    <linearGradient
       inkscape:collect="always"
       xlink:href="#linearGradient3287"
       id="linearGradient3368"
       gradientUnits="userSpaceOnUse"
       gradientTransform="translate(-11.369226,6.6010311)"
       x1="499.49463"
       y1="445.3165"
       x2="504.90192"
       y2="443.75977" />
    <linearGradient
       id="linearGradient3370">
      <stop
         id="stop3372"
         offset="0"
         style="stop-color:#787878;stop-opacity:1;" />
      <stop
         style="stop-color:#b7b7b7;stop-opacity:1;"
         offset="0.5"
         id="stop3374" />
      <stop
         id="stop3376"
         offset="1"
         style="stop-color:#939393;stop-opacity:1;" />
    </linearGradient>
    <radialGradient
       inkscape:collect="always"
       xlink:href="#linearGradient3267"
       id="radialGradient4046"
       gradientUnits="userSpaceOnUse"
       gradientTransform="matrix(1,0,0,1.6565442,0,-318.97939)"
       cx="477.2626"
       cy="485.84604"
       fx="477.2626"
       fy="485.84604"
       r="32.039558" />
    <linearGradient
       id="linearGradient3267">
      <stop
         style="stop-color:#787878;stop-opacity:1;"
         offset="0"
         id="stop3269" />
      <stop
         style="stop-color:#909090;stop-opacity:1;"
         offset="1"
         id="stop3271" />
    </linearGradient>
    <radialGradient
       inkscape:collect="always"
       xlink:href="#linearGradient6339"
       id="radialGradient4028"
       gradientUnits="userSpaceOnUse"
       gradientTransform="matrix(1.454579,-0.103027,0.118439,1.802414,-328.325,-918.4274)"
       cx="406.20645"
       cy="1189.2123"
       fx="406.20645"
       fy="1189.2123"
       r="88.938736" />
    <linearGradient
       id="linearGradient6339">
      <stop
         id="stop6341"
         offset="0"
         style="stop-color:#6e9f4b;stop-opacity:1;" />
      <stop
         style="stop-color:#425f2d;stop-opacity:1;"
         offset="0.5"
         id="stop12671" />
      <stop
         style="stop-color:#2a3d1d;stop-opacity:1;"
         offset="1"
         id="stop6347" />
    </linearGradient>
    <radialGradient
       inkscape:collect="always"
       xlink:href="#linearGradient13206"
       id="radialGradient4030"
       gradientUnits="userSpaceOnUse"
       gradientTransform="matrix(1.150346,0,0,1.150346,-16.1173,-74.46758)"
       cx="107.20115"
       cy="495.30679"
       fx="107.20115"
       fy="495.30679"
       r="405.35715" />
    <linearGradient
       id="linearGradient13206">
      <stop
         style="stop-color:#f2c41f;stop-opacity:1;"
         offset="0"
         id="stop13208" />
      <stop
         style="stop-color:#b9380a;stop-opacity:1;"
         offset="1"
         id="stop2186" />
    </linearGradient>
    <radialGradient
       inkscape:collect="always"
       xlink:href="#linearGradient5142"
       id="radialGradient4032"
       gradientUnits="userSpaceOnUse"
       gradientTransform="matrix(2.971416,0.433793,-0.445445,3.041429,176.2001,-314.492)"
       cx="209.15753"
       cy="407.22339"
       fx="209.15753"
       fy="407.22339"
       r="55.703125" />
    <linearGradient
       id="linearGradient5142">
      <stop
         id="stop5144"
         offset="0"
         style="stop-color:#bfd1eb;stop-opacity:1;" />
      <stop
         style="stop-color:#315c9b;stop-opacity:1;"
         offset="0.61538464"
         id="stop5150" />
      <stop
         id="stop5146"
         offset="1"
         style="stop-color:#11233a;stop-opacity:1;" />
    </linearGradient>
    <radialGradient
       inkscape:collect="always"
       xlink:href="#linearGradient4437"
       id="radialGradient4034"
       gradientUnits="userSpaceOnUse"
       cx="136.1499"
       cy="504.90085"
       fx="136.1499"
       fy="504.90085"
       r="406.37308" />
    <linearGradient
       id="linearGradient4437"
       inkscape:collect="always">
      <stop
         id="stop4439"
         offset="0"
         style="stop-color:#ffffff;stop-opacity:0.85624999" />
      <stop
         id="stop4441"
         offset="1"
         style="stop-color:#ffffff;stop-opacity:0;" />
    </linearGradient>
    <linearGradient
       inkscape:collect="always"
       xlink:href="#linearGradient3287"
       id="linearGradient3337"
       gradientUnits="userSpaceOnUse"
       gradientTransform="translate(-11.369226,6.6010311)"
       x1="499.49463"
       y1="445.3165"
       x2="504.90192"
       y2="443.75977" />
  </defs>
  <g
     inkscape:label="Calque 1"
     id="layer1"
     transform="matrix(0.20883942,0,0,0.20883942,2.7936975,-125.01299)">
    <g
       id="g43078"
       transform="matrix(1.717828,0.371908,-0.326113,1.506117,-1714.337,-171.6708)">
      <g
         id="g3225">
        <path
           sodipodi:type="arc"
           style="fill:url(#radialGradient4028);fill-opacity:1;fill-rule:evenodd;stroke:none;stroke-width:1px;marker:none;visibility:visible;display:inline;overflow:visible"
           id="path5452"
           sodipodi:cx="444.6937"
           sodipodi:cy="1211.5447"
           sodipodi:rx="88.938736"
           sodipodi:ry="110.2067"
           d="m 533.63243,1211.5447 c 0,60.8655 -39.81923,110.2067 -88.93873,110.2067 -49.11951,0 -88.93874,-49.3412 -88.93874,-110.2067 0,-60.8655 39.81923,-110.2067 88.93874,-110.2067 49.1195,0 88.93873,49.3412 88.93873,110.2067 z"
           transform="matrix(0.479653,0.00386615,-0.00372447,0.461999,899.3227,-259.237)" />
        <g
           style="stroke:none;display:inline"
           inkscape:label="skins"
           id="g22959"
           transform="matrix(0.278956,0,0,0.316467,929.849,95.75408)">
          <g
             transform="matrix(0.691474,0,0,0.691474,194.6521,226.2037)"
             id="g3528"
             style="stroke:none;display:inline">
            <path
               sodipodi:type="arc"
               style="fill:url(#radialGradient4030);fill-opacity:1;fill-rule:evenodd;stroke:none;stroke-width:5.6437459;marker:none;visibility:visible;display:inline;overflow:visible"
               id="path1307"
               sodipodi:cx="261.42856"
               sodipodi:cy="648.07648"
               sodipodi:rx="392.85715"
               sodipodi:ry="392.85715"
               d="m 654.28571,648.07648 c 0,216.96901 -175.88814,392.85712 -392.85715,392.85712 -216.969013,0 -392.85715,-175.88811 -392.85715,-392.85712 0,-216.96901 175.888137,-392.85715 392.85715,-392.85715 216.96901,0 392.85715,175.88814 392.85715,392.85715 z"
               transform="matrix(0.595377,0,0,0.595377,484.3515,236.1627)" />
            <g
               style="stroke:none;display:inline"
               inkscape:label="titre 3"
               id="layer7"
               transform="matrix(1.649352,0,0,1.652007,-456.9646,-1157.083)">
              <path
                 inkscape:connector-curvature="0"
                 sodipodi:nodetypes="cccccccccccccccccccccccccccccccc"
                 id="path2495"
                 d="m 685.79834,936.8631 c -32.76808,-4.93347 -67.11167,2.38183 -95.15749,19.98847 6.70091,4.75188 33.47985,14.65682 20.05068,21.2461 -7.40299,13.03187 -31.39864,28.25703 -46.28999,18.68545 -14.85645,5.58808 -34.57523,24.60068 -29.29017,39.87828 20.02708,6.571 22.77241,18.9918 18.78287,21.7385 -22.06633,12.7917 -27.57786,49.4131 -21.04149,68.6413 21.70411,60.5474 88.29596,100.1795 151.8732,90.1663 50.25358,-6.5873 95.21077,-42.4725 112.79522,-90.0049 4.08443,-34.8935 -25.0242,31.0706 -24.50763,-2.9505 1.65443,-20.6432 -19.40389,-11.2893 -29.66898,-20.7225 -13.89675,5.8998 -36.74148,-23.8871 -37.4247,4.5024 4.81353,13.7973 42.44306,-9.0631 21.44813,14.0941 -13.70214,16.3501 -48.5274,51.7702 -49.13854,73.4666 -5.54522,30.7089 -32.51552,0.3119 -41.46381,-11.9629 -3.37758,-21.7716 8.39814,-56.4164 -8.88553,-70.104 -20.69691,-4.9459 -38.25594,-10.2474 -41.78365,-35.1486 -1.60466,-17.6363 13.26507,-40.5432 31.90691,-40.9177 29.4066,-11.3851 31.70139,26.0793 56.13443,31.4975 9.18613,-6.5023 30.53215,-5.0874 34.00483,-13.7012 -15.55946,-5.9631 23.09448,-9.56 2.29501,-19.906 -12.40841,-0.9205 -22.36882,8.8259 -17.76835,19.5292 -24.57911,0.932 -17.62879,-38.7948 -42.66093,-30.7095 -4.42621,19.5859 -38.18253,-0.7277 -13.0712,-0.014 9.07314,-2.0336 -10.84194,-16.8977 0.66461,-12.6749 5.89895,0.8127 26.98919,-2.1935 22.57593,-7.8524 12.27088,-4.67428 16.91595,20.0143 30.90871,5.2966 10.25581,-11.41407 -0.24916,-15.87426 -11.22076,-11.20616 -5.68993,-9.5673 27.49686,-24.63229 40.24223,-20.94712 5.86251,10.21162 20.56162,13.77653 20.45157,-1.48464 9.22666,-11.69675 39.61538,16.32179 20.55054,-2.47475 -20.71997,-19.22379 -47.32709,-31.94762 -75.31165,-35.94933 z"
                 style="fill:url(#radialGradient4032);fill-opacity:1;fill-rule:nonzero;stroke:none;stroke-width:2.03562093;marker:none;visibility:visible;display:inline;overflow:visible" />
            </g>
            <path
               sodipodi:type="arc"
               style="opacity:0.76025235;fill:url(#radialGradient4034);fill-opacity:1;fill-rule:evenodd;stroke:none;stroke-width:5.6437459;marker:none;visibility:visible;display:inline;overflow:visible"
               id="path2653"
               sodipodi:cx="261.42856"
               sodipodi:cy="648.07648"
               sodipodi:rx="392.85715"
               sodipodi:ry="392.85715"
               d="m 654.28571,648.07648 c 0,216.96901 -175.88814,392.85712 -392.85715,392.85712 -216.969013,0 -392.85715,-175.88811 -392.85715,-392.85712 0,-216.96901 175.888137,-392.85715 392.85715,-392.85715 216.96901,0 392.85715,175.88814 392.85715,392.85715 z"
               transform="matrix(0.595377,0,0,0.595377,484.3515,236.1627)" />
          </g>
        </g>
        <g
           id="g13579"
           transform="matrix(0.461631,0.00365849,-0.0037212,0.453853,776.2595,-251.8312)"
           style="opacity:0.41833813;fill:none;stroke:#686868;stroke-width:0.77920502;stroke-miterlimit:4;stroke-opacity:1;stroke-dasharray:none;display:inline">
          <path
             inkscape:connector-curvature="0"
             sodipodi:nodetypes="cc"
             id="path13581"
             d="m 729.28579,1110.8182 0.0514,219.6508"
             style="fill:none;stroke:#686868;stroke-width:0.77920502;stroke-linecap:round;stroke-linejoin:round;stroke-miterlimit:4;stroke-opacity:1;stroke-dasharray:none" />
          <path
             inkscape:connector-curvature="0"
             sodipodi:nodetypes="cc"
             id="path13583"
             d="m 702.13652,1109.7713 c -21.87876,69.7695 -19.62303,141.5587 0.13282,215.3635"
             style="fill:none;stroke:#686868;stroke-width:0.77920502;stroke-linecap:round;stroke-linejoin:round;stroke-miterlimit:4;stroke-opacity:1;stroke-dasharray:none;display:inline" />
          <path
             inkscape:connector-curvature="0"
             sodipodi:nodetypes="cc"
             id="path13585"
             d="m 756.30133,1109.3909 c 21.96052,70.0455 19.79619,142.0848 0.1394,216.1226"
             style="fill:none;stroke:#686868;stroke-width:0.77920502;stroke-linecap:round;stroke-linejoin:round;stroke-miterlimit:4;stroke-opacity:1;stroke-dasharray:none;display:inline" />
          <path
             inkscape:connector-curvature="0"
             sodipodi:nodetypes="cc"
             id="path13587"
             d="m 672.38158,1127.6022 c -37.60127,59.2232 -34.64352,118.6117 0.73925,181.2359"
             style="fill:none;stroke:#686868;stroke-width:0.77920502;stroke-linecap:round;stroke-linejoin:round;stroke-miterlimit:4;stroke-opacity:1;stroke-dasharray:none;display:inline" />
          <path
             inkscape:connector-curvature="0"
             sodipodi:nodetypes="cc"
             id="path13589"
             d="m 786.223,1127.9786 c 37.58901,59.7224 34.59363,117.3242 -0.76919,180.4709"
             style="fill:none;stroke:#686868;stroke-width:0.77920502;stroke-linecap:round;stroke-linejoin:round;stroke-miterlimit:4;stroke-opacity:1;stroke-dasharray:none;display:inline" />
          <g
             transform="matrix(0,1.124456,-0.877527,0,1797.633,397.4031)"
             id="g13591"
             style="fill:none;stroke:#686868;stroke-width:0.78442293;stroke-miterlimit:4;stroke-opacity:1;stroke-dasharray:none">
            <path
               inkscape:connector-curvature="0"
               style="fill:none;stroke:#686868;stroke-width:0.78442293;stroke-linecap:round;stroke-linejoin:round;stroke-miterlimit:4;stroke-opacity:1;stroke-dasharray:none;display:inline"
               d="m 729.2615,1108.2592 0.0486,218.3869"
               id="path13593" />
            <path
               inkscape:connector-curvature="0"
               style="fill:none;stroke:#686868;stroke-width:0.78442293;stroke-linecap:round;stroke-linejoin:round;stroke-miterlimit:4;stroke-opacity:1;stroke-dasharray:none;display:inline"
               d="m 702.19152,1112.6889 c -21.96238,67.8818 -19.7236,137.7256 0.0634,209.5281"
               id="path13595"
               sodipodi:nodetypes="cc" />
            <path
               inkscape:connector-curvature="0"
               style="fill:none;stroke:#686868;stroke-width:0.78442293;stroke-linecap:round;stroke-linejoin:round;stroke-miterlimit:4;stroke-opacity:1;stroke-dasharray:none;display:inline"
               d="m 754.23777,1110.5303 c 22.06458,64.8653 20.26754,145.7212 0.42882,214.3115"
               id="path13597"
               sodipodi:nodetypes="cc" />
            <path
               inkscape:connector-curvature="0"
               style="fill:none;stroke:#686868;stroke-width:0.78442293;stroke-linecap:round;stroke-linejoin:round;stroke-miterlimit:4;stroke-opacity:1;stroke-dasharray:none;display:inline"
               d="m 673.12083,1126.0672 c -37.60127,59.2232 -35.38277,120.1467 0,182.7709"
               id="path13599"
               sodipodi:nodetypes="cc" />
            <path
               inkscape:connector-curvature="0"
               style="fill:none;stroke:#686868;stroke-width:0.78442293;stroke-linecap:round;stroke-linejoin:round;stroke-miterlimit:4;stroke-opacity:1;stroke-dasharray:none;display:inline"
               d="m 785.45069,1126.0672 c 37.60127,59.2232 35.38277,120.1467 0,182.7709"
               id="path13601"
               sodipodi:nodetypes="cc" />
          </g>
        </g>
        <path
           inkscape:connector-curvature="0"
           id="path50675"
           d="m 1107.6009,251.92564 c -0.099,0 -0.1992,0.008 -0.2986,0.009 -0.3304,0.002 -0.6634,0.007 -0.9921,0.0176 -24.3096,0.77641 -43.8308,23.46819 -43.8308,51.32684 0,23.77336 14.2209,43.78448 33.4965,49.6265 0.1792,0.0543 0.3555,0.11553 0.5356,0.1674 5.615,1.68792 11.5129,2.13737 17.3321,1.09242 3.9047,-0.58355 7.7076,-1.80995 11.3089,-3.56803 0.085,-0.0408 0.1703,-0.082 0.2546,-0.12334 0.065,-0.032 0.1289,-0.0645 0.1932,-0.0969 0.3676,-0.18246 0.7351,-0.37065 1.0975,-0.56386 0.027,-0.0142 0.053,-0.0298 0.079,-0.044 0.015,-0.008 0.029,-0.0183 0.044,-0.0264 15.2992,-8.22069 25.8929,-25.93948 25.8929,-46.46372 0,-14.93567 -5.6153,-28.38139 -14.5664,-37.76831 -0.2066,-0.21671 -0.4132,-0.43078 -0.6234,-0.64312 -0.1354,-0.13775 -0.267,-0.27827 -0.4039,-0.41407 -0.076,-0.0746 -0.1522,-0.14622 -0.2282,-0.22025 -0.1969,-0.19262 -0.3973,-0.38404 -0.5971,-0.57264 -0.017,-0.0156 -0.036,-0.0285 -0.053,-0.0441 -0.052,-0.0485 -0.1063,-0.0927 -0.158,-0.14097 -0.4872,-0.45433 -0.9803,-0.90016 -1.4839,-1.33029 -0.01,-0.005 -0.011,-0.0122 -0.018,-0.0176 -0.1118,-0.0953 -0.2209,-0.18781 -0.3336,-0.28192 -0.1769,-0.14805 -0.3567,-0.29544 -0.5356,-0.44048 -0.05,-0.0406 -0.099,-0.083 -0.1493,-0.12337 -0.2459,-0.19773 -0.4968,-0.38941 -0.7463,-0.58145 -0.2165,-0.16655 -0.4305,-0.331 -0.6497,-0.49336 -0.085,-0.0632 -0.169,-0.12246 -0.2546,-0.185 -0.309,-0.22566 -0.617,-0.44382 -0.9307,-0.66074 -0.3074,-0.21253 -0.619,-0.42146 -0.9307,-0.62551 -0.012,-0.008 -0.023,-0.0185 -0.035,-0.0264 -0.3035,-0.19824 -0.6144,-0.39131 -0.9219,-0.58146 -0.3205,-0.19819 -0.6412,-0.39217 -0.9658,-0.58145 -0.3228,-0.1882 -0.648,-0.37577 -0.9746,-0.55502 -0.041,-0.0227 -0.082,-0.0479 -0.1229,-0.0705 -0.2882,-0.1569 -0.5782,-0.30821 -0.8693,-0.45811 -0.3206,-0.16515 -0.6418,-0.31921 -0.9658,-0.47575 -0.015,-0.007 -0.029,-0.0191 -0.044,-0.0264 -0.1427,-0.0687 -0.2868,-0.13551 -0.4302,-0.20262 -0.1957,-0.0916 -0.3915,-0.18469 -0.5883,-0.27312 -0.065,-0.0291 -0.1282,-0.0593 -0.1932,-0.0881 -0.2761,-0.12238 -0.5559,-0.23626 -0.8341,-0.35241 -0.3185,-0.13298 -0.6359,-0.26292 -0.957,-0.38761 -0.029,-0.0115 -0.058,-0.0239 -0.088,-0.0353 -0.1661,-0.064 -0.3336,-0.12315 -0.5005,-0.185 -0.185,-0.0686 -0.3674,-0.13683 -0.5531,-0.20263 -0.082,-0.0291 -0.1635,-0.0595 -0.2459,-0.0881 -0.2712,-0.0941 -0.5438,-0.1849 -0.8166,-0.2731 -0.2673,-0.0865 -0.5384,-0.1745 -0.8077,-0.2555 -0.091,-0.0273 -0.1813,-0.0527 -0.2722,-0.0793 -0.1815,-0.0532 -0.362,-0.0991 -0.5444,-0.14977 -0.1794,-0.0497 -0.3556,-0.10261 -0.5356,-0.14978 -0.093,-0.0245 -0.1876,-0.0466 -0.281,-0.0705 -0.2713,-0.069 -0.544,-0.13953 -0.8165,-0.20264 0,-6.4e-4 -0.01,6.6e-4 -0.01,0 -0.067,-0.0156 -0.1346,-0.0289 -0.2019,-0.044 -0.2837,-0.064 -0.567,-0.12741 -0.8517,-0.18501 -0.015,-0.003 -0.029,-0.006 -0.044,-0.009 -0.1865,-0.0379 -0.3747,-0.0704 -0.5619,-0.10572 -0.2775,-0.0523 -0.5551,-0.10322 -0.8342,-0.14977 -0.2819,-0.0484 -0.5603,-0.0902 -0.8429,-0.13215 -0.044,-0.006 -0.088,-0.0114 -0.1317,-0.0176 -0.3324,-0.0481 -0.6677,-0.093 -1.0009,-0.13215 -0.3801,-0.0447 -0.7606,-0.0814 -1.1415,-0.11453 -0.268,-0.0232 -0.5384,-0.0438 -0.8077,-0.0617 -0.2914,-0.0193 -0.5852,-0.031 -0.878,-0.044 -0.038,-0.002 -0.076,-0.007 -0.1142,-0.009 -0.1703,-0.007 -0.3389,-0.0131 -0.5092,-0.0176 -0.1934,-0.006 -0.3855,-0.006 -0.5795,-0.009 -0.194,-0.003 -0.385,-0.009 -0.5795,-0.009 z"
           style="fill:none;stroke:none;stroke-width:0.84432685;marker:none;visibility:visible;display:inline;overflow:visible" />
      </g>
    </g>
  </g>
  <g
     transform="matrix(0.04853044,0,0,0.04853044,-5.148985,-4.5881855)"
     id="g3421">
    <use
       x="0"
       y="0"
       xlink:href="#g3385"
       id="use3389"
       transform="matrix(1.1901829,0,0,1.1901829,291.79914,-277.05172)"
       width="1006"
       height="806" />
    <g
       id="g3385">
      <use
         transform="translate(0,-64)"
         height="806"
         width="1006"
         id="use3351"
         xlink:href="#path3349"
         y="0"
         x="0" />
      <path
         inkscape:connector-curvature="0"
         id="path3349"
         d="M 202.9568,508.93107 306.71655,449.02535"
         style="fill:none;stroke:#000000;stroke-width:3.19999957;stroke-linecap:butt;stroke-linejoin:miter;stroke-miterlimit:4;stroke-opacity:1;stroke-dasharray:none" />
    </g>
    <use
       x="0"
       y="0"
       xlink:href="#g2444"
       id="use2457"
       transform="matrix(0.8300409,0,0,0.8300409,-237.42266,234.59901)"
       width="1006"
       height="806" />
    <g
       id="g3229"
       style="fill:url(#radialGradient4040);fill-opacity:1">
      <path
         inkscape:connector-curvature="0"
         sodipodi:nodetypes="ccccc"
         d="m 388.72748,383.90533 124,36 0,-122.80515 -124,-36.69347 0,123.49862 z"
         style="fill:url(#radialGradient4036);fill-opacity:1;fill-rule:evenodd;stroke:#000000;stroke-width:1px;stroke-linecap:butt;stroke-linejoin:miter;stroke-opacity:1"
         id="path2395" />
      <path
         inkscape:connector-curvature="0"
         id="path2406"
         style="fill:url(#radialGradient4038);fill-opacity:1;fill-rule:evenodd;stroke:#000000;stroke-width:1px;stroke-linecap:butt;stroke-linejoin:miter;stroke-opacity:1"
         d="m 388.72748,383.90533 -76,36 0,-118.80515 76,-40.69347 0,123.49862 z"
         sodipodi:nodetypes="ccccc" />
    </g>
    <path
       inkscape:connector-curvature="0"
       id="path2408"
       style="fill:url(#linearGradient4042);fill-opacity:1;fill-rule:evenodd;stroke:#000000;stroke-width:1px;stroke-linecap:butt;stroke-linejoin:miter;stroke-opacity:1"
       d="m 436.72748,455.90533 -124,-36 76,-36 124,36 -76,36 z"
       sodipodi:nodetypes="ccccc" />
    <use
       x="0"
       y="0"
       xlink:href="#path3277"
       id="use3301"
       transform="matrix(0.9242238,-0.3818512,0.3818512,0.9242238,-160.00787,234.60038)"
       width="1006"
       height="806" />
    <g
       id="g2444"
       transform="matrix(1,0,0.2713362,1,-148.43357,33.226103)"
       style="fill:#000080">
      <path
         inkscape:connector-curvature="0"
         sodipodi:nodetypes="ccccc"
         d="m 608.87041,304.61811 26,-102 -108.41315,56.32215 -26,100 108.41315,-54.32215 z"
         style="fill:#000080;fill-rule:evenodd;stroke:#000000;stroke-width:1px;stroke-linecap:butt;stroke-linejoin:miter;stroke-opacity:1"
         id="path2417" />
      <path
         inkscape:connector-curvature="0"
         id="path2424"
         style="fill:#000080;fill-rule:evenodd;stroke:#000000;stroke-width:1px;stroke-linecap:butt;stroke-linejoin:miter;stroke-opacity:1"
         d="m 610.87041,303.69348 26,-102 119.58685,-62.75322 -24,106 -121.58685,58.75322 z"
         sodipodi:nodetypes="ccccc" />
      <path
         inkscape:connector-curvature="0"
         sodipodi:nodetypes="ccccc"
         d="m 860.87041,185.69348 21.87182,-110.038558 -124.05381,62.591868 -24,106 126.18199,-58.55331 z"
         style="fill:#000080;fill-rule:evenodd;stroke:#000000;stroke-width:1px;stroke-linecap:butt;stroke-linejoin:miter;stroke-opacity:1"
         id="path2428" />
    </g>
    <path
       inkscape:connector-curvature="0"
       style="fill:url(#linearGradient3337);fill-opacity:1;fill-rule:evenodd;stroke:#000000;stroke-width:0.30000001;stroke-linecap:butt;stroke-linejoin:miter;stroke-miterlimit:4;stroke-opacity:1;stroke-dasharray:none"
       d="m 482.61531,430.09642 c 0,0 -0.55433,-2.0087 1.6439,-3.27784 1.95816,-1.13055 3.44188,1.1354 3.44188,1.1354 l 13.2681,49.51724 -5.2807,1.41496 -13.07318,-48.78976 z"
       id="path3277"
       sodipodi:nodetypes="czcccc" />
    <path
       sodipodi:type="arc"
       style="fill:url(#radialGradient4046);fill-opacity:1;fill-rule:nonzero;stroke:#000000;stroke-width:0.2794874;stroke-linecap:square;stroke-linejoin:miter;stroke-miterlimit:3.97000003;stroke-opacity:1;stroke-dasharray:none"
       id="path3263"
       sodipodi:cx="481.73346"
       sodipodi:cy="485.84604"
       sodipodi:rx="31.899817"
       sodipodi:ry="52.935204"
       d="m 513.63328,485.84604 c 0,29.2353 -14.28204,52.9352 -31.89982,52.9352 -17.61778,0 -31.89982,-23.6999 -31.89982,-52.9352 0,-29.23531 14.28204,-52.9352 31.89982,-52.9352 17.61778,0 31.89982,23.69989 31.89982,52.9352 z"
       transform="matrix(1.1521739,-0.207765,0.3657757,0.9340417,-223.32147,168.7845)" />
  </g>
  <text
     xml:space="preserve"
     style="font-size:10px;font-style:normal;font-weight:normal;line-height:125%;letter-spacing:0px;word-spacing:0px;fill:#000000;fill-opacity:1;stroke:none;font-family:Sans"
     x="36.51532"
     y="30.08197"
     id="text3331"
     sodipodi:linespacing="125%"><tspan
       sodipodi:role="line"
       x="36.51532"
       y="30.08197"
       style="font-size:13px;font-weight:bold;text-align:end;line-height:125%;text-anchor:end;fill:#ffffff;-inkscape-font-specification:Sans Bold"
       id="tspan3343">Kep</tspan></text>
</svg>
