<?xml version="1.0" encoding="UTF-8" standalone="no"?>
<!-- Generator: Adobe Illustrator 14.0.0, SVG Export Plug-In . SVG Version: 6.00 Build 43363)  -->

<svg
   xmlns:dc="http://purl.org/dc/elements/1.1/"
   xmlns:cc="http://creativecommons.org/ns#"
   xmlns:rdf="http://www.w3.org/1999/02/22-rdf-syntax-ns#"
   xmlns:svg="http://www.w3.org/2000/svg"
   xmlns="http://www.w3.org/2000/svg"
   xmlns:xlink="http://www.w3.org/1999/xlink"
   xmlns:sodipodi="http://sodipodi.sourceforge.net/DTD/sodipodi-0.dtd"
   xmlns:inkscape="http://www.inkscape.org/namespaces/inkscape"
   version="1.1"
   id="svg2"
   x="0px"
   y="0px"
   width="40"
   height="40"
   viewBox="0 0 40 40"
   enable-background="new 0 0 50 50"
   xml:space="preserve"
   inkscape:version="0.48.4 r9939"
   sodipodi:docname="PLANET_MODEL.svg"><metadata
     id="metadata47"><rdf:RDF><cc:Work
         rdf:about=""><dc:format>image/svg+xml</dc:format><dc:type
           rdf:resource="http://purl.org/dc/dcmitype/StillImage" /><dc:title /></cc:Work></rdf:RDF></metadata><defs
     id="defs45"><linearGradient
       inkscape:collect="always"
       xlink:href="#path2385_1_"
       id="linearGradient3052"
       gradientUnits="userSpaceOnUse"
       gradientTransform="matrix(0.112,0,0,0.1144,-223.8299,-394.5179)"
       x1="2437.0449"
       y1="3493.6467"
       x2="2458.1443"
       y2="3621.1729" /><radialGradient
       inkscape:collect="always"
       xlink:href="#path2605_1_"
       id="radialGradient3054"
       gradientUnits="userSpaceOnUse"
       gradientTransform="matrix(0.1258,0.0749,0.0172,-0.0289,-231.0848,-302.932)"
       cx="2670.3154"
       cy="-4786.3281"
       r="25.408899" /><radialGradient
       id="path2605_1_"
       cx="2670.3154"
       cy="-4786.3281"
       r="25.408899"
       gradientTransform="matrix(0.1258,0.0749,0.0172,-0.0289,-231.0848,-302.932)"
       gradientUnits="userSpaceOnUse"><stop
         offset="0"
         style="stop-color:#484038"
         id="stop38" /><stop
         offset="1"
         style="stop-color:#BD854D"
         id="stop40" /></radialGradient><radialGradient
       inkscape:collect="always"
       xlink:href="#path2605_1_"
       id="radialGradient3060"
       gradientUnits="userSpaceOnUse"
       gradientTransform="matrix(0.09823762,0.05848965,0.01343153,-0.0225681,-177.4746,-243.35461)"
       cx="2670.3154"
       cy="-4786.3281"
       r="25.408899" /><linearGradient
       inkscape:collect="always"
       xlink:href="#path2385_1_"
       id="linearGradient3070"
       gradientUnits="userSpaceOnUse"
       gradientTransform="matrix(0.112,0,0,0.1144,-223.8299,-394.5179)"
       x1="2437.0449"
       y1="3493.6467"
       x2="2458.1443"
       y2="3621.1729" /><linearGradient
       gradientTransform="matrix(0.112,0,0,0.1144,-223.8299,-394.5179)"
       y2="3621.1729"
       x2="2458.1443"
       y1="3493.6467"
       x1="2437.0449"
       gradientUnits="userSpaceOnUse"
       id="path2385_1_"><stop
         id="stop29"
         style="stop-color:#FFFFFF"
         offset="0" /><stop
         id="stop31"
         style="stop-color:#FFFFFF;stop-opacity:0"
         offset="1" /></linearGradient><linearGradient
       inkscape:collect="always"
       xlink:href="#path2385_1_"
       id="linearGradient3078"
       gradientUnits="userSpaceOnUse"
       gradientTransform="matrix(0.08746116,0,0,0.08933532,-193.44648,-301.99354)"
       x1="2437.0449"
       y1="3493.6467"
       x2="2458.1443"
       y2="3621.1729" /></defs><sodipodi:namedview
     pagecolor="#ffffff"
     bordercolor="#666666"
     borderopacity="1"
     objecttolerance="10"
     gridtolerance="10"
     guidetolerance="10"
     inkscape:pageopacity="0"
     inkscape:pageshadow="2"
     inkscape:window-width="1400"
     inkscape:window-height="991"
     id="namedview43"
     showgrid="false"
     inkscape:zoom="4.72"
     inkscape:cx="25.847458"
     inkscape:cy="25"
     inkscape:window-x="0"
     inkscape:window-y="27"
     inkscape:window-maximized="1"
     inkscape:current-layer="svg2" /><filter
     y="-0.13083522"
     x="-0.03892545"
     id="filter3423"
     height="1.2616704"
     width="1.0778509"
     color-interpolation-filters="sRGB"><feGaussianBlur
       id="feGaussianBlur3425"
       stdDeviation="0.87522005"
       inkscape:collect="always" /></filter><path
     style="fill:#ff7f2a"
     inkscape:connector-curvature="0"
     d="m 31.692517,20.85206 c 0.0016,6.193343 -5.018864,11.21377 -11.211427,11.215331 -6.193343,7.81e-4 -11.2145501,-5.018864 -11.215331,-11.211427 0,-0.0016 0,-0.0023 0,-0.0039 -7.809e-4,-6.193343 5.018865,-11.2145506 11.211427,-11.2153315 6.192562,-7.809e-4 11.21377,5.0188645 11.215331,11.2114265 0,0.0016 0,0.0023 0,0.0039 z"
     id="path2383" /><path
     id="path2605"
     d="m 31.565215,22.550736 c -0.127288,0.829319 -0.368587,1.646144 -0.688757,2.445789 1.142461,1.251788 1.646144,2.270085 1.313479,2.830774 C 31.343438,29.247762 25.386709,27.264268 18.902089,23.404263 12.417469,19.543478 7.8601177,15.253977 8.7058358,13.833514 9.043186,13.267359 10.189552,13.250179 11.855999,13.667962 12.415126,12.995605 13.053905,12.414613 13.730948,11.903902 7.7117461,9.2886573 3.0809902,8.3945232 2.1524963,9.9539868 0.78669667,12.247499 7.8944774,18.982008 17.975937,24.98403 c 10.082241,6.002022 19.36718,9.024898 20.732199,6.731386 0.924589,-1.551655 -2.02332,-5.152399 -7.142921,-9.16468 z"
     inkscape:connector-curvature="0"
     style="fill:url(#radialGradient3060)" /></svg>